\relax 
\citation{Silberstein_1907}
\citation{jackson1998classical}
\citation{Bialynicki-Birula_1996}
\citation{Sameen_Ahmed_Khan_2005}
\newlabel{FirstPage}{{}{1}{}{}{}}
\@writefile{toc}{\contentsline {title}{Real-time Maxwell-Kohn-Sham propagation (working title)}{1}{}}
\@writefile{toc}{\contentsline {abstract}{Abstract}{1}{}}
\@writefile{toc}{\contentsline {section}{\numberline {I}Introduction}{1}{}}
\newlabel{sec:Intro}{{I}{1}{}{}{}}
\@writefile{toc}{\contentsline {section}{\numberline {II}Theoretical method}{1}{}}
\@writefile{toc}{\contentsline {subsection}{\numberline {A}Free classical Maxwell propagation in Riemann-Silberstein formulation in vacuum}{1}{}}
\@writefile{toc}{\contentsline {subsubsection}{\numberline {1}Inhomogeneous Maxwell's equations in Riemann-Silberstein formulation}{1}{}}
\newlabel{eq_RSf_Riemann-Silberstein_vector_vacuum}{{1}{1}{}{}{}}
\newlabel{eq_RSf_RS_energy_density_vacuum}{{3}{1}{}{}{}}
\newlabel{eq_RSf_Gauss_vacuum_Riemann-Silberstein}{{4}{1}{}{}{}}
\newlabel{eq_RSf_Faraday_Ampere_vacuum_Riemann-Silberstein}{{5}{1}{}{}{}}
\newlabel{eq_RSf_curl_identity_Spin-1_matrices}{{6}{1}{}{}{}}
\newlabel{eq_RSf_Spin-1_xyz_matrices}{{II\tmspace  +\thinmuskip {.1667em}A\tmspace  +\thinmuskip {.1667em}1}{1}{}{}{}}
\newlabel{eq_RSf_Ampere_Farraday_law_in_RS_representation}{{9}{1}{}{}{}}
\newlabel{eq_RSf_Ampere_Farraday_law_hamiltonian}{{11}{1}{}{}{}}
\citation{Mamadou_Ndong_2009}
\citation{Ioana_Serban_2005}
\citation{Ruggenthaler_2014}
\citation{Babiker_83}
\citation{Dirac_28}
\@writefile{toc}{\contentsline {subsubsection}{\numberline {2}Time-evolution operator for free Maxwell propagation in Riemann-Silberstein formulation}{2}{}}
\newlabel{eq_Mteo_inhom_Schroedinger_time_ev_op}{{12}{2}{}{}{}}
\newlabel{eq_Mteo_inhom_Maxwell_time_ev_op}{{13}{2}{}{}{}}
\newlabel{eq_Mteo_hom_Maxwell_time_ev_op}{{14}{2}{}{}{}}
\newlabel{eq_Mteo_def_inhom_Maxwell_time_ev_op}{{15}{2}{}{}{}}
\@writefile{toc}{\contentsline {subsection}{\numberline {B}Electric Kohn-Sham-Pauli propagation with Ehrenfest core dynamics}{2}{}}
\@writefile{toc}{\contentsline {subsubsection}{\numberline {1}Maxwell-Kohn-Sham coupling in low relativistic regime}{2}{}}
\newlabel{eq_MKSc_Maxwell_Dirac_eq}{{16}{2}{}{}{}}
\newlabel{eq_MKSc_Maxwell_Dirac_alpha_eq}{{17}{2}{}{}{}}
\citation{HohenbergKohn}
\citation{KohnSham}
\newlabel{eq_MKSc_Maxwell_Dirac_alpha_eq_2}{{18}{3}{}{}{}}
\newlabel{eq_MKSc_Maxwell_Dirac_alpha_eq_2_approx}{{19}{3}{}{}{}}
\newlabel{eq_MKSc_psi_m_approx}{{20}{3}{}{}{}}
\newlabel{eq_MKSc_Maxwell_Dirac_alpha_eq_electron}{{21}{3}{}{}{}}
\newlabel{eq_MKSc_Pauli_eq_factor_approximation}{{22}{3}{}{}{}}
\newlabel{eq_MKSc_Pauli_identity}{{23}{3}{}{}{}}
\newlabel{eq_MKSc_Pauli_equation}{{24}{3}{}{}{}}
\newlabel{eq_MKSc_Pauli_hamiltonian}{{25}{3}{}{}{}}
\newlabel{eq_MKSc_total_Hamiltonian}{{26}{3}{}{}{}}
\newlabel{eq_MKSc_Kohn_Sham_equation}{{27}{3}{}{}{}}
\newlabel{eq_MKSc_Kohn_Sham_Hamiltonian}{{28}{3}{}{}{}}
\newlabel{eq_MKSc_Kohn_Sham_potential}{{29}{3}{}{}{}}
\newlabel{eq_MKSc_Kohn_Sham_Pauli_equation}{{30}{4}{}{}{}}
\newlabel{eq_MKSc_Kohn_Sham_Pauli_Hamiltonian}{{31}{4}{}{}{}}
\newlabel{eq_MKSc_Kohn_Sham_Pauli_A_Hamiltonian}{{32}{4}{}{}{}}
\newlabel{eq_MKSc_Kohn_Sham_Pauli_B_Hamiltonian}{{33}{4}{}{}{}}
\newlabel{eq_MKSc_Kohn_Sham_Pauli_potential}{{34}{4}{}{}{}}
\newlabel{eq_MKSc_Kohn_Sham_plus_int_Hamiltonian}{{35}{4}{}{}{}}
\newlabel{eq_MKSc_interaction_Hamiltonian}{{36}{4}{}{}{}}
\@writefile{toc}{\contentsline {subsubsection}{\numberline {2}Ehrenfest dynamics of the melecular nuclei}{4}{}}
\@writefile{toc}{\contentsline {subsection}{\numberline {C}Maxwell-Matter-coupling}{4}{}}
\@writefile{toc}{\contentsline {subsubsection}{\numberline {1}Maxwell to matter coupling in multipole expansion}{4}{}}
\newlabel{eq_MKSc_gauge_transformation}{{37}{4}{}{}{}}
\newlabel{eq_MKSc_Power_Zienau_Woolley_trans}{{38}{4}{}{}{}}
\newlabel{eq_MKSc_charge_density_polarization}{{39}{4}{}{}{}}
\newlabel{eq_MKSc_atomic_charge_density}{{40}{4}{}{}{}}
\newlabel{eq_MKSc_polarization}{{41}{4}{}{}{}}
\newlabel{eq_MKSc_Power_Zienau_Woolley_trans_Coulomb}{{42}{4}{}{}{}}
\citation{Castro2004}
\newlabel{eq_MKSc_PZW_trans_of_KSP_Hamiltonian}{{43}{5}{}{}{}}
\newlabel{eq_MKSc_PZW_trans_of_KSP_Hamiltonian_full}{{44}{5}{}{}{}}
\newlabel{eq_MKSc_electric_dipole_Hamiltonian_term}{{45}{5}{}{}{}}
\newlabel{eq_MKSc_electric_quadrupole_Hamiltonian_term}{{46}{5}{}{}{}}
\newlabel{eq_MKSc_magnetic_dipole_Hamiltonian_term}{{47}{5}{}{}{}}
\@writefile{toc}{\contentsline {subsubsection}{\numberline {2}Full minipal coupling}{5}{}}
\@writefile{toc}{\contentsline {subsubsection}{\numberline {3}Predictor-Corrector Time-evolution of Maxwell-Kohn-Sham system}{5}{}}
\@writefile{lof}{\contentsline {figure}{\numberline {1}{\ignorespaces scheme of predictor-corrector propagation}}{6}{}}
\@writefile{lof}{\contentsline {figure}{\numberline {2}{\ignorespaces scheme of conventional propagation}}{6}{}}
\@writefile{toc}{\contentsline {subsection}{\numberline {D}Electromagnetic absorbing boundaries}{6}{}}
\@writefile{toc}{\contentsline {subsubsection}{\numberline {1}Absorbing boundary conditions by mask functions}{6}{}}
\@writefile{toc}{\contentsline {subsubsection}{\numberline {2}Cavity boundaries}{6}{}}
\@writefile{toc}{\contentsline {subsubsection}{\numberline {3}Implementation in the real-time real-space ab initio simulation code Octopus}{6}{}}
\@writefile{toc}{\contentsline {subsubsection}{\numberline {4}Incident electromagnetic waves}{6}{}}
\@writefile{toc}{\contentsline {subsection}{\numberline {E}Multible time and length scales for photons, electrons and protons}{6}{}}
\@writefile{toc}{\contentsline {subsubsection}{\numberline {1}Three different time scales}{6}{}}
\@writefile{toc}{\contentsline {subsubsection}{\numberline {2}Three different length scales}{6}{}}
\@writefile{toc}{\contentsline {section}{\numberline {III}First principle applications}{6}{}}
\@writefile{toc}{\contentsline {subsection}{\numberline {A}Free Maxwell propagation}{6}{}}
\@writefile{toc}{\contentsline {subsubsection}{\numberline {1}Light pulse propagation}{6}{}}
\@writefile{toc}{\contentsline {subsubsection}{\numberline {2}External current pulse}{6}{}}
\bibdata{octopus_maxwellNotes,octopus_maxwell}
\@writefile{lof}{\contentsline {figure}{\numberline {3}{\ignorespaces Electric field z component at the center of a simulation box of while a free Maxwell gaussian shaped light pulse of a plane wave propagates in x-direction and passes the simulation box. The carrier wavelength is 1000 atomic unit length (53 nm). The gauss envelope width is also 1000 atomic units with an electric field amplitude of 0.1 in atomic units of field strength. The light pulse was simulated as incident waves into a cubic simulation box with a size of 44 atomic length units (2.3 nm). The initial simulated light pulse was shiftet by 3000 atomic length units (185.8 nm) so that the maximum of the signal reaches the center of the simulation box after 21.9 atomic time units. All five simulations in the plot have the same initial conditions except the time step, which varies in terms of the $ S_{CFL} $ number ( $ S_{CFL} = 1.0, \hspace  {1mm} 0.75, \hspace  {1mm} 0.5, \hspace  {1mm} 0.25, \hspace  {1mm} 0.1 $ ) }}{7}{}}
\@writefile{lof}{\contentsline {figure}{\numberline {4}{\ignorespaces Electric field enhancement triggered by a gaussian shaped laser pulse o f $ 10^{-3} $ electric field amplitude. The enhancement of the $Na_297$ dimer and the amplitude of the incoming laser which triggers the enhancement have the same magnitude.}}{7}{}}
\@writefile{lof}{\contentsline {figure}{\numberline {5}{\ignorespaces Electric field enhancement triggered by a gaussian shaped laser pulse of $ 10^{-4} $ electric field amplitude. The enhancement of the $Na_{297}$ dimer and the amplitude of the incoming laser which triggers the enhancement is one magnitude larger.}}{7}{}}
\@writefile{lof}{\contentsline {figure}{\numberline {6}{\ignorespaces Electric field enhancement triggered by a gaussian shaped laser pulse of $ 10^{-5} $ electric field amplitude. The enhancement of the $Na_{297}$ dimer and the amplitude of the incoming laser which triggers the enhancement is two magnitude larger.}}{8}{}}
\@writefile{lof}{\contentsline {figure}{\numberline {7}{\ignorespaces Electric field enhancement triggered by a gaussian shaped laser pulse of $ 10^{-6} $ electric field amplitude. The enhancement of the $Na_{297}$ dimer and the amplitude of the incoming laser which triggers the enhancement is three magnitude larger.}}{8}{}}
\@writefile{lof}{\contentsline {figure}{\numberline {8}{\ignorespaces Electric field enhancement triggered by a gaussian shaped laser pulse of different electric field amplitudes. The enhancement of the $Na_{297}$ dimer has almost the same shape and magnitude despite of a trigger wave amplitude as large as the field enhancement. The Maxwell fields enhancement seems to be independent of the incoming laser intensity, but sensitive to the frequency.}}{8}{}}
\@writefile{lof}{\contentsline {figure}{\numberline {9}{\ignorespaces Energy of the $Na_{297}$ dimer hit by a gaussian shaped laser pulse of $ 10^{-3} $ electric field amplitude.}}{8}{}}
\@writefile{lof}{\contentsline {figure}{\numberline {10}{\ignorespaces Energy of the $Na_{297}$ dimer hit by a gaussian shaped laser pulse of $ 10^{-4} $ electric field amplitude.}}{9}{}}
\@writefile{lof}{\contentsline {figure}{\numberline {11}{\ignorespaces Energy of the $Na_{297}$ dimer hit by a gaussian shaped laser pulse of $ 10^{-5} $ electric field amplitude.}}{9}{}}
\@writefile{lof}{\contentsline {figure}{\numberline {12}{\ignorespaces Energy of the $Na_{297}$ dimer hit by a gaussian shaped laser pulse of $ 10^{-6} $ electric field amplitude.}}{9}{}}
\@writefile{lof}{\contentsline {figure}{\numberline {13}{\ignorespaces Energy of the $Na_{297}$ dimer hit by a gaussian shaped laser pulse of different electric field amplitudes. The energy seems to be frequency dependent and almost invariant of the laser intensity.}}{9}{}}
\@writefile{lof}{\contentsline {figure}{\numberline {14}{\ignorespaces Kinetic energy of the $Na_{297}$ dimer hit by a gaussian shaped laser pulse of different electric field amplitude.}}{10}{}}
\@writefile{lof}{\contentsline {figure}{\numberline {15}{\ignorespaces Ion-ion energy of the $Na_{297}$ dimer hit by a gaussian shaped laser pulse of different electric field amplitude.}}{10}{}}
\@writefile{lof}{\contentsline {figure}{\numberline {16}{\ignorespaces Electronic energy of the $Na_{297}$ dimer hit by a gaussian shaped laser pulse of different electric field amplitude.}}{10}{}}
\@writefile{toc}{\contentsline {subsection}{\numberline {B}Maxwell-Matter propagation}{10}{}}
\@writefile{toc}{\contentsline {subsubsection}{\numberline {1}Different orders in multipole coupling}{10}{}}
\@writefile{toc}{\contentsline {subsubsection}{\numberline {2}Forward coupling}{10}{}}
\@writefile{toc}{\contentsline {subsubsection}{\numberline {3}Forward-Backward coupling}{10}{}}
\@writefile{toc}{\contentsline {subsubsection}{\numberline {4}Optical and X-ray electromagnetic waves}{10}{}}
\@writefile{toc}{\contentsline {subsubsection}{\numberline {5}Relaxation}{10}{}}
\@writefile{toc}{\contentsline {subsubsection}{\numberline {6}Performance}{10}{}}
\@writefile{toc}{\contentsline {section}{\numberline {IV}Maxwell-Kohn-Sham simulation of an Na$_{297}$ dimer}{10}{}}
\@writefile{toc}{\contentsline {subsection}{\numberline {A}Maxwell-Kohn-Sham simulation in Dipole Approximation without matter to Maxwell coupling}{10}{}}
\@writefile{toc}{\contentsline {subsection}{\numberline {B}Maxwell-Kohn-Sham simulation in higher multipole expansion with coupled matter to Maxwell coupling}{10}{}}
\@writefile{toc}{\contentsline {subsection}{\numberline {C}Relaxation and field radiation of the azulene molecule after excitation}{10}{}}
\@writefile{toc}{\contentsline {subsection}{\numberline {D}Perfomance of the Maxwell-Kohn-Sham implementation}{10}{}}
\@writefile{toc}{\contentsline {section}{\numberline {V}Summary, Outlook}{10}{}}
\bibcite{Silberstein_1907}{{1}{1907}{{{Silberstein}}}{{}}}
\bibcite{jackson1998classical}{{2}{1998}{{Jackson}}{{}}}
\bibcite{Bialynicki-Birula_1996}{{3}{1996}{{Bialynicki-Birula}}{{}}}
\bibcite{Sameen_Ahmed_Khan_2005}{{4}{2005}{{Khan}}{{}}}
\bibcite{Mamadou_Ndong_2009}{{5}{2009}{{Ndong\ \emph  {et~al.}}}{{Ndong, Tal-Ezer, Kosloff,\ and\ Koch}}}
\bibcite{Ioana_Serban_2005}{{6}{2005}{{Serban\ \emph  {et~al.}}}{{Serban, Werschnik,\ and\ Gross}}}
\bibcite{Ruggenthaler_2014}{{7}{2014}{{Ruggenthaler\ \emph  {et~al.}}}{{Ruggenthaler, Flick, Pellegrini, Appel, Tokatly,\ and\ Rubio}}}
\bibcite{Babiker_83}{{8}{1983}{{M.~Babiker}}{{}}}
\bibcite{Dirac_28}{{9}{1928}{{Dirac}}{{}}}
\bibcite{HohenbergKohn}{{10}{1964}{{Hohenberg\ and\ Kohn}}{{}}}
\bibcite{KohnSham}{{11}{1965}{{Kohn\ and\ Sham}}{{}}}
\bibcite{Castro2004}{{12}{2004}{{Castro\ \emph  {et~al.}}}{{Castro, Marques,\ and\ Rubio}}}
\bibstyle{apsrev4-1}
\citation{REVTEX41Control}
\citation{apsrev41Control}
\@writefile{toc}{\contentsline {section}{\numberline {}References}{11}{}}
\newlabel{LastBibItem}{{12}{11}{}{}{}}
\newlabel{LastPage}{{}{11}{}{}{}}
