<?xml version="1.0" encoding="UTF-8" standalone="no"?>
<!-- Created with Inkscape (http://www.inkscape.org/) -->

<svg
   xmlns:ns0="http://www.iki.fi/pav/software/textext/"
   xmlns:dc="http://purl.org/dc/elements/1.1/"
   xmlns:cc="http://creativecommons.org/ns#"
   xmlns:rdf="http://www.w3.org/1999/02/22-rdf-syntax-ns#"
   xmlns:svg="http://www.w3.org/2000/svg"
   xmlns="http://www.w3.org/2000/svg"
   xmlns:sodipodi="http://sodipodi.sourceforge.net/DTD/sodipodi-0.dtd"
   xmlns:inkscape="http://www.inkscape.org/namespaces/inkscape"
   width="744.09448819"
   height="1052.3622047"
   id="svg2"
   version="1.1"
   inkscape:version="0.48.4 r9939"
   sodipodi:docname="predictor_corrector_maxwell_to_matter_coupling.pdf">
  <sodipodi:namedview
     id="base"
     pagecolor="#ffffff"
     bordercolor="#666666"
     borderopacity="1.0"
     inkscape:pageopacity="0.0"
     inkscape:pageshadow="2"
     inkscape:zoom="0.805"
     inkscape:cx="341.01997"
     inkscape:cy="715.87949"
     inkscape:document-units="px"
     inkscape:current-layer="layer1"
     showgrid="false"
     inkscape:snap-bbox="true"
     inkscape:snap-global="false"
     inkscape:window-width="1535"
     inkscape:window-height="876"
     inkscape:window-x="65"
     inkscape:window-y="24"
     inkscape:window-maximized="1" />
  <defs
     id="defs4">
    <marker
       style="overflow:visible;"
       id="Arrow2Send"
       refX="0.0"
       refY="0.0"
       orient="auto"
       inkscape:stockid="Arrow2Send">
      <path
         transform="scale(0.3) rotate(180) translate(-2.3,0)"
         d="M 8.7185878,4.0337352 L -2.2072895,0.016013256 L 8.7185884,-4.0017078 C 6.9730900,-1.6296469 6.9831476,1.6157441 8.7185878,4.0337352 z "
         style="fill-rule:evenodd;stroke-width:0.62500000;stroke-linejoin:round;"
         id="path6585" />
    </marker>
    <marker
       inkscape:stockid="Arrow1Send"
       orient="auto"
       refY="0.0"
       refX="0.0"
       id="Arrow1Send"
       style="overflow:visible;">
      <path
         id="path6567"
         d="M 0.0,0.0 L 5.0,-5.0 L -12.5,0.0 L 5.0,5.0 L 0.0,0.0 z "
         style="fill-rule:evenodd;stroke:#000000;stroke-width:1.0pt;"
         transform="scale(0.2) rotate(180) translate(6,0)" />
    </marker>
    <marker
       style="overflow:visible;"
       id="Arrow2Mend"
       refX="0.0"
       refY="0.0"
       orient="auto"
       inkscape:stockid="Arrow2Mend">
      <path
         transform="scale(0.6) rotate(180) translate(0,0)"
         d="M 8.7185878,4.0337352 L -2.2072895,0.016013256 L 8.7185884,-4.0017078 C 6.9730900,-1.6296469 6.9831476,1.6157441 8.7185878,4.0337352 z "
         style="fill-rule:evenodd;stroke-width:0.62500000;stroke-linejoin:round;"
         id="path6579" />
    </marker>
    <marker
       inkscape:stockid="Arrow1Mend"
       orient="auto"
       refY="0.0"
       refX="0.0"
       id="Arrow1Mend"
       style="overflow:visible;">
      <path
         id="path6561"
         d="M 0.0,0.0 L 5.0,-5.0 L -12.5,0.0 L 5.0,5.0 L 0.0,0.0 z "
         style="fill-rule:evenodd;stroke:#000000;stroke-width:1.0pt;"
         transform="scale(0.4) rotate(180) translate(10,0)" />
    </marker>
    <marker
       inkscape:stockid="Arrow1Sstart"
       orient="auto"
       refY="0.0"
       refX="0.0"
       id="Arrow1Sstart"
       style="overflow:visible">
      <path
         id="path6564"
         d="M 0.0,0.0 L 5.0,-5.0 L -12.5,0.0 L 5.0,5.0 L 0.0,0.0 z "
         style="fill-rule:evenodd;stroke:#000000;stroke-width:1.0pt"
         transform="scale(0.2) translate(6,0)" />
    </marker>
    <marker
       inkscape:stockid="Arrow2Lstart"
       orient="auto"
       refY="0.0"
       refX="0.0"
       id="Arrow2Lstart"
       style="overflow:visible">
      <path
         id="path5460"
         style="fill-rule:evenodd;stroke-width:0.62500000;stroke-linejoin:round"
         d="M 8.7185878,4.0337352 L -2.2072895,0.016013256 L 8.7185884,-4.0017078 C 6.9730900,-1.6296469 6.9831476,1.6157441 8.7185878,4.0337352 z "
         transform="scale(1.1) translate(1,0)" />
    </marker>
    <marker
       inkscape:stockid="Arrow1Mstart"
       orient="auto"
       refY="0.0"
       refX="0.0"
       id="Arrow1Mstart"
       style="overflow:visible">
      <path
         id="path5448"
         d="M 0.0,0.0 L 5.0,-5.0 L -12.5,0.0 L 5.0,5.0 L 0.0,0.0 z "
         style="fill-rule:evenodd;stroke:#000000;stroke-width:1.0pt"
         transform="scale(0.4) translate(10,0)" />
    </marker>
    <marker
       inkscape:stockid="Arrow1Lend"
       orient="auto"
       refY="0.0"
       refX="0.0"
       id="Arrow1Lend"
       style="overflow:visible;">
      <path
         id="path5445"
         d="M 0.0,0.0 L 5.0,-5.0 L -12.5,0.0 L 5.0,5.0 L 0.0,0.0 z "
         style="fill-rule:evenodd;stroke:#000000;stroke-width:1.0pt;"
         transform="scale(0.8) rotate(180) translate(12.5,0)" />
    </marker>
    <marker
       inkscape:stockid="Arrow1Lstart"
       orient="auto"
       refY="0.0"
       refX="0.0"
       id="Arrow1Lstart"
       style="overflow:visible">
      <path
         id="path5442"
         d="M 0.0,0.0 L 5.0,-5.0 L -12.5,0.0 L 5.0,5.0 L 0.0,0.0 z "
         style="fill-rule:evenodd;stroke:#000000;stroke-width:1.0pt"
         transform="scale(0.8) translate(12.5,0)" />
    </marker>
    <marker
       inkscape:stockid="Arrow2Lstarth"
       orient="auto"
       refY="0.0"
       refX="0.0"
       id="Arrow2Lstarth"
       style="overflow:visible">
      <path
         id="path5627"
         style="stroke-linejoin:round;stroke:#000080;stroke-width:0.62500000;fill:#000080;fill-rule:evenodd"
         d="M 8.7185878,4.0337352 L -2.2072895,0.016013256 L 8.7185884,-4.0017078 C 6.9730900,-1.6296469 6.9831476,1.6157441 8.7185878,4.0337352 z "
         transform="scale(1.1) translate(1,0)" />
    </marker>
    <marker
       inkscape:stockid="Arrow1Mstart8"
       orient="auto"
       refY="0.0"
       refX="0.0"
       id="Arrow1Mstart8"
       style="overflow:visible">
      <path
         id="path7210"
         d="M 0.0,0.0 L 5.0,-5.0 L -12.5,0.0 L 5.0,5.0 L 0.0,0.0 z "
         style="stroke:#000080;stroke-width:1.0pt;fill:#000080;fill-rule:evenodd"
         transform="scale(0.4) translate(10,0)" />
    </marker>
    <marker
       inkscape:stockid="Arrow1Mstart8x"
       orient="auto"
       refY="0.0"
       refX="0.0"
       id="Arrow1Mstart8x"
       style="overflow:visible">
      <path
         id="path8169"
         d="M 0.0,0.0 L 5.0,-5.0 L -12.5,0.0 L 5.0,5.0 L 0.0,0.0 z "
         style="fill-rule:evenodd;stroke:#aa0000;stroke-width:1.0pt;fill:#aa0000"
         transform="scale(0.4) translate(10,0)" />
    </marker>
    <marker
       inkscape:stockid="Arrow1Mendf"
       orient="auto"
       refY="0.0"
       refX="0.0"
       id="Arrow1Mendf"
       style="overflow:visible;">
      <path
         id="path9342"
         d="M 0.0,0.0 L 5.0,-5.0 L -12.5,0.0 L 5.0,5.0 L 0.0,0.0 z "
         style="stroke:#000080;stroke-width:1.0pt;fill:#000080;fill-rule:evenodd"
         transform="scale(0.4) rotate(180) translate(10,0)" />
    </marker>
    <marker
       inkscape:stockid="Arrow1Mendf"
       orient="auto"
       refY="0"
       refX="0"
       id="Arrow1Mendf-5"
       style="overflow:visible">
      <path
         id="path9342-6"
         d="M 0,0 5,-5 -12.5,0 5,5 0,0 z"
         style="fill:#000080;fill-rule:evenodd;stroke:#000080;stroke-width:1pt"
         transform="matrix(-0.4,0,0,-0.4,-4,0)"
         inkscape:connector-curvature="0" />
    </marker>
    <marker
       inkscape:stockid="Arrow1Mendff"
       orient="auto"
       refY="0.0"
       refX="0.0"
       id="Arrow1Mendff"
       style="overflow:visible;">
      <path
         id="path12217"
         d="M 0.0,0.0 L 5.0,-5.0 L -12.5,0.0 L 5.0,5.0 L 0.0,0.0 z "
         style="fill-rule:evenodd;stroke:#0000aa;stroke-width:1.0pt;fill:#0000aa"
         transform="scale(0.4) rotate(180) translate(10,0)" />
    </marker>
    <marker
       inkscape:stockid="Arrow1Mendfl"
       orient="auto"
       refY="0.0"
       refX="0.0"
       id="Arrow1Mendfl"
       style="overflow:visible;">
      <path
         id="path12426"
         d="M 0.0,0.0 L 5.0,-5.0 L -12.5,0.0 L 5.0,5.0 L 0.0,0.0 z "
         style="fill-rule:evenodd;stroke:#0000aa;stroke-width:1.0pt;fill:#0000aa"
         transform="scale(0.4) rotate(180) translate(10,0)" />
    </marker>
    <marker
       inkscape:stockid="Arrow1Mstart8t"
       orient="auto"
       refY="0.0"
       refX="0.0"
       id="Arrow1Mstart8t"
       style="overflow:visible">
      <path
         id="path12639"
         d="M 0.0,0.0 L 5.0,-5.0 L -12.5,0.0 L 5.0,5.0 L 0.0,0.0 z "
         style="fill-rule:evenodd;stroke:#0000aa;stroke-width:1.0pt;fill:#0000aa"
         transform="scale(0.4) translate(10,0)" />
    </marker>
    <marker
       inkscape:stockid="Arrow1Mendf-5V"
       orient="auto"
       refY="0"
       refX="0"
       id="Arrow1Mendf-5V"
       style="overflow:visible">
      <path
         id="path12856"
         d="M 0,0 5,-5 -12.5,0 5,5 0,0 z"
         style="stroke-width:1pt;stroke:#aa0000;fill-rule:evenodd;fill:#aa0000"
         transform="matrix(-0.4,0,0,-0.4,-4,0)"
         inkscape:connector-curvature="0" />
    </marker>
    <marker
       inkscape:stockid="Arrow1Mendf-5V"
       orient="auto"
       refY="0"
       refX="0"
       id="Arrow1Mendf-5V-9"
       style="overflow:visible">
      <path
         id="path12856-1"
         d="M 0,0 5,-5 -12.5,0 5,5 0,0 z"
         style="fill:#aa0000;fill-rule:evenodd;stroke:#aa0000;stroke-width:1pt"
         transform="matrix(-0.4,0,0,-0.4,-4,0)"
         inkscape:connector-curvature="0" />
    </marker>
    <marker
       inkscape:stockid="Arrow1Mendf-5VI"
       orient="auto"
       refY="0"
       refX="0"
       id="Arrow1Mendf-5VI"
       style="overflow:visible">
      <path
         id="path15021"
         d="M 0,0 5,-5 -12.5,0 5,5 0,0 z"
         style="stroke:#c80000;stroke-width:1pt;fill:#c80000;fill-rule:evenodd"
         transform="matrix(-0.4,0,0,-0.4,-4,0)"
         inkscape:connector-curvature="0" />
    </marker>
    <marker
       inkscape:stockid="Arrow1Mendf-5VZ"
       orient="auto"
       refY="0"
       refX="0"
       id="Arrow1Mendf-5VZ"
       style="overflow:visible">
      <path
         id="path15252"
         d="M 0,0 5,-5 -12.5,0 5,5 0,0 z"
         style="stroke:#f00000;stroke-width:1pt;fill:#f00000;fill-rule:evenodd"
         transform="matrix(-0.4,0,0,-0.4,-4,0)"
         inkscape:connector-curvature="0" />
    </marker>
    <marker
       inkscape:stockid="Arrow1Mendf-5VIG"
       orient="auto"
       refY="0"
       refX="0"
       id="Arrow1Mendf-5VIG"
       style="overflow:visible">
      <path
         id="path15487"
         d="M 0,0 5,-5 -12.5,0 5,5 0,0 z"
         style="fill-rule:evenodd;stroke:#f00000;stroke-width:1pt;fill:#f00000"
         transform="matrix(-0.4,0,0,-0.4,-4,0)"
         inkscape:connector-curvature="0" />
    </marker>
    <marker
       inkscape:stockid="Arrow1Mendff6"
       orient="auto"
       refY="0.0"
       refX="0.0"
       id="Arrow1Mendff6"
       style="overflow:visible;">
      <path
         id="path15726"
         d="M 0.0,0.0 L 5.0,-5.0 L -12.5,0.0 L 5.0,5.0 L 0.0,0.0 z "
         style="stroke:#0000f0;stroke-width:1.0pt;fill:#0000f0;fill-rule:evenodd"
         transform="scale(0.4) rotate(180) translate(10,0)" />
    </marker>
    <marker
       inkscape:stockid="Arrow1Mendff6i"
       orient="auto"
       refY="0.0"
       refX="0.0"
       id="Arrow1Mendff6i"
       style="overflow:visible;">
      <path
         id="path15969"
         d="M 0.0,0.0 L 5.0,-5.0 L -12.5,0.0 L 5.0,5.0 L 0.0,0.0 z "
         style="fill-rule:evenodd;stroke:#0000ff;stroke-width:1.0pt;fill:#0000ff"
         transform="scale(0.4) rotate(180) translate(10,0)" />
    </marker>
    <marker
       inkscape:stockid="Arrow1MendflJ"
       orient="auto"
       refY="0.0"
       refX="0.0"
       id="Arrow1MendflJ"
       style="overflow:visible;">
      <path
         id="path16216"
         d="M 0.0,0.0 L 5.0,-5.0 L -12.5,0.0 L 5.0,5.0 L 0.0,0.0 z "
         style="stroke:#0000ff;stroke-width:1.0pt;fill:#0000ff;fill-rule:evenodd"
         transform="scale(0.4) rotate(180) translate(10,0)" />
    </marker>
    <marker
       inkscape:stockid="Arrow1Mendf-5VIG1"
       orient="auto"
       refY="0"
       refX="0"
       id="Arrow1Mendf-5VIG1"
       style="overflow:visible">
      <path
         id="path16467"
         d="M 0,0 5,-5 -12.5,0 5,5 0,0 z"
         style="stroke:#ff0000;stroke-width:1pt;fill:#ff0000;fill-rule:evenodd"
         transform="matrix(-0.4,0,0,-0.4,-4,0)"
         inkscape:connector-curvature="0" />
    </marker>
    <marker
       inkscape:stockid="Arrow1Mendf-5VZL"
       orient="auto"
       refY="0"
       refX="0"
       id="Arrow1Mendf-5VZL"
       style="overflow:visible">
      <path
         id="path16722"
         d="M 0,0 5,-5 -12.5,0 5,5 0,0 z"
         style="fill-rule:evenodd;stroke:#ff0000;stroke-width:1pt;fill:#ff0000"
         transform="matrix(-0.4,0,0,-0.4,-4,0)"
         inkscape:connector-curvature="0" />
    </marker>
    <marker
       inkscape:stockid="Arrow2LstartB"
       orient="auto"
       refY="0.0"
       refX="0.0"
       id="Arrow2LstartB"
       style="overflow:visible">
      <path
         id="path23552"
         style="stroke-linejoin:round;stroke:#00aa00;stroke-width:0.62500000;fill:#00aa00;fill-rule:evenodd"
         d="M 8.7185878,4.0337352 L -2.2072895,0.016013256 L 8.7185884,-4.0017078 C 6.9730900,-1.6296469 6.9831476,1.6157441 8.7185878,4.0337352 z "
         transform="scale(1.1) translate(1,0)" />
    </marker>
    <marker
       inkscape:stockid="Arrow2LstartB"
       orient="auto"
       refY="0"
       refX="0"
       id="Arrow2LstartB-1"
       style="overflow:visible">
      <path
         inkscape:connector-curvature="0"
         id="path23552-0"
         style="fill:#00aa00;fill-rule:evenodd;stroke:#00aa00;stroke-width:0.625;stroke-linejoin:round"
         d="M 8.7185878,4.0337352 -2.2072895,0.01601326 8.7185884,-4.0017078 c -1.7454984,2.3720609 -1.7354408,5.6174519 -6e-7,8.035443 z"
         transform="matrix(1.1,0,0,1.1,1.1,0)" />
    </marker>
    <marker
       inkscape:stockid="Arrow2LstartB"
       orient="auto"
       refY="0"
       refX="0"
       id="Arrow2LstartB-5"
       style="overflow:visible">
      <path
         inkscape:connector-curvature="0"
         id="path23552-1"
         style="fill:#00aa00;fill-rule:evenodd;stroke:#00aa00;stroke-width:0.625;stroke-linejoin:round"
         d="M 8.7185878,4.0337352 -2.2072895,0.01601326 8.7185884,-4.0017078 c -1.7454984,2.3720609 -1.7354408,5.6174519 -6e-7,8.035443 z"
         transform="matrix(1.1,0,0,1.1,1.1,0)" />
    </marker>
    <marker
       inkscape:stockid="Arrow1Send7"
       orient="auto"
       refY="0.0"
       refX="0.0"
       id="Arrow1Send7"
       style="overflow:visible;">
      <path
         id="path27104"
         d="M 0.0,0.0 L 5.0,-5.0 L -12.5,0.0 L 5.0,5.0 L 0.0,0.0 z "
         style="stroke:#00aa00;stroke-width:1.0pt;fill:#00aa00;fill-rule:evenodd"
         transform="scale(0.2) rotate(180) translate(6,0)" />
    </marker>
    <marker
       inkscape:stockid="Arrow1Mendp"
       orient="auto"
       refY="0.0"
       refX="0.0"
       id="Arrow1Mendp"
       style="overflow:visible;">
      <path
         id="path29735"
         d="M 0.0,0.0 L 5.0,-5.0 L -12.5,0.0 L 5.0,5.0 L 0.0,0.0 z "
         style="stroke:#00aa00;stroke-width:1.0pt;fill:#00aa00;fill-rule:evenodd"
         transform="scale(0.4) rotate(180) translate(10,0)" />
    </marker>
  </defs>
  <metadata
     id="metadata7">
    <rdf:RDF>
      <cc:Work
         rdf:about="">
        <dc:format>image/svg+xml</dc:format>
        <dc:type
           rdf:resource="http://purl.org/dc/dcmitype/StillImage" />
        <dc:title></dc:title>
      </cc:Work>
    </rdf:RDF>
  </metadata>
  <g
     inkscape:label="Layer 1"
     inkscape:groupmode="layer"
     id="layer1"
     style="display:inline">
    <path
       style="stroke-linejoin:round;marker-end:url(#Arrow1Mendff6i);stroke-opacity:1;marker-start:none;stroke:#0000ff;stroke-linecap:butt;stroke-miterlimit:4;stroke-dasharray:none;stroke-width:2.49400000000000022;fill:none"
       d="m 451.39991,176.26716 -239.16256,169.36894 -6.57804,4.65838"
       id="path9446"
       inkscape:connector-curvature="0"
       sodipodi:nodetypes="ccc" />
    <path
       style="stroke-linejoin:round;marker-end:url(#Arrow1MendflJ);stroke-opacity:1;stroke:#0000ff;stroke-linecap:butt;stroke-miterlimit:4;stroke-dasharray:none;stroke-width:2.48939490000000019;fill:none"
       d="M 453.84451,528.41749 205.6659,355.68892"
       id="path9448"
       inkscape:connector-curvature="0"
       sodipodi:nodetypes="cc" />
    <g
       style="font-style:normal;font-variant:normal;font-weight:normal;font-stretch:normal;letter-spacing:normal;word-spacing:normal;text-anchor:start;fill:#ff0000;stroke:#000000;stroke-linecap:butt;stroke-linejoin:miter;stroke-miterlimit:10.43299960999999954;stroke-opacity:1;stroke-dasharray:none;stroke-dashoffset:0"
       id="content"
       transform="matrix(4,0,0,-4,-795.71429,2907.8571)"
       xml:space="preserve"
       stroke-miterlimit="10.433"
       font-style="normal"
       font-variant="normal"
       font-weight="normal"
       font-stretch="normal"
       font-size-adjust="none"
       letter-spacing="normal"
       word-spacing="normal"
       ns0:text="$ \\Psi(\\vec{r},t + \\Delta t) $"
       ns0:preamble=""><g
         ns0:preamble=""
         ns0:text="$ \\Psi ( \\vec{r} , t + \\Delta t ) $"
         text-anchor="start"
         word-spacing="normal"
         letter-spacing="normal"
         font-size-adjust="none"
         font-stretch="normal"
         font-weight="normal"
         font-variant="normal"
         font-style="normal"
         fill-opacity="1"
         fill-rule="evenodd"
         fill="none"
         stroke-opacity="1"
         stroke-dashoffset="0"
         stroke-dasharray="none"
         stroke-miterlimit="10.433"
         stroke-linejoin="miter"
         stroke-linecap="butt"
         stroke="black"
         xml:space="preserve"
         transform="matrix(2.000000,0,0,-2.000000,-400.000000,1500.000000)"
         id="g3186"><path
           id="path3188"
           fill="black"
           stroke-width="0"
           d="M227.68,713.12 L227.68,713.16 L227.68,713.19 L227.68,713.21 L227.68,713.24 L227.68,713.27 L227.69,713.29 L227.69,713.32 L227.69,713.34 L227.7,713.36 L227.71,713.39 L227.72,713.41 L227.73,713.42 L227.74,713.44 L227.76,713.46 L227.78,713.48 L227.8,713.49 L227.82,713.5 L227.83,713.51 L227.85,713.52 L227.86,713.52 L227.88,713.53 L227.89,713.53 L227.91,713.54 L227.93,713.55 L227.95,713.55 L227.97,713.55 L227.99,713.56 L228.01,713.56 L228.03,713.57 L228.05,713.57 L228.08,713.57 L228.1,713.58 L228.13,713.58 L228.16,713.58 L228.19,713.59 L228.22,713.59 L228.25,713.59 L228.28,713.59 L228.31,713.6 L228.35,713.6 L228.38,713.6 L228.42,713.6 L228.46,713.6 L228.5,713.6 L228.54,713.6 L228.58,713.6 L228.63,713.6 H228.95 V713.91 C228.6,713.88,227.68,713.88,227.27,713.88 C226.86,713.88,225.94,713.88,225.58,713.91 V713.6 H225.91 C226.85,713.6,226.85,713.47,226.85,713.12 V708.71 C225.55,709.06,225.5,710.59,225.5,711.24 C225.49,712.44,225.05,712.63,224.62,712.63 H224.25 C224.1,712.63,224,712.63,224,712.52 C224,712.47,224.03,712.42,224.09,712.41 C224.42,712.37,224.67,712.23,224.68,711.06 C224.68,710.83,224.71,710.05,225.18,709.38 C225.57,708.84,226.18,708.55,226.85,708.47 V707.91 C226.85,707.57,226.85,707.43,225.91,707.43 H225.58 V707.12 C225.94,707.16,226.85,707.16,227.26,707.16 C227.67,707.16,228.6,707.16,228.95,707.12 V707.43 H228.63 C227.68,707.43,227.68,707.56,227.68,707.91 V708.47 C228.4,708.55,229,708.85,229.39,709.37 C229.91,710.08,229.92,710.86,229.92,711.3 C229.92,711.46,229.93,712.34,230.47,712.41 C230.53,712.42,230.6,712.43,230.6,712.52 C230.6,712.63,230.52,712.63,230.36,712.63 H229.98 C229.59,712.63,229.1,712.56,229.09,711.12 C229.08,710.03,228.76,708.97,227.68,708.71 Z " /><path
           id="path3190"
           fill="black"
           stroke-width="0"
           d="M234.47,704.74 L234.47,704.75 L234.47,704.75 L234.47,704.75 L234.47,704.76 L234.47,704.76 L234.47,704.76 L234.47,704.77 L234.47,704.77 L234.47,704.77 L234.47,704.78 L234.46,704.78 L234.46,704.79 L234.46,704.79 L234.45,704.8 L234.45,704.8 L234.44,704.81 L234.44,704.82 L234.43,704.82 L234.43,704.83 L234.43,704.83 L234.42,704.84 L234.42,704.84 L234.42,704.84 L234.41,704.85 L234.41,704.85 L234.4,704.86 L234.4,704.86 L234.39,704.87 L234.39,704.87 L234.38,704.88 L234.38,704.88 L234.37,704.89 L234.37,704.9 L234.36,704.9 L234.35,704.91 L234.35,704.92 L234.34,704.92 L234.33,704.93 L234.33,704.94 L234.32,704.94 L234.31,704.95 L234.3,704.96 C233.06,706.21,232.74,708.09,232.74,709.61 C232.74,711.34,233.12,713.07,234.35,714.31 C234.47,714.43,234.47,714.45,234.47,714.48 C234.47,714.55,234.43,714.58,234.38,714.58 C234.27,714.58,233.38,713.9,232.79,712.64 C232.29,711.55,232.17,710.44,232.17,709.61 C232.17,708.83,232.27,707.63,232.82,706.51 C233.42,705.29,234.27,704.64,234.38,704.64 C234.43,704.64,234.47,704.67,234.47,704.74 Z " /><path
           id="path3192"
           fill="black"
           stroke-width="0"
           d="M240.08,713.04 L240.07,713.02 L240.05,713.01 L240.04,713 L240.02,712.98 L240,712.97 L239.99,712.95 L239.97,712.93 L239.95,712.92 L239.93,712.9 L239.91,712.88 L239.87,712.84 L239.83,712.8 L239.79,712.76 L239.78,712.74 L239.76,712.72 L239.74,712.7 L239.72,712.68 L239.71,712.66 L239.69,712.64 L239.68,712.62 L239.67,712.6 L239.65,712.58 L239.64,712.56 L239.64,712.54 L239.63,712.52 L239.62,712.5 L239.62,712.48 L239.61,712.47 L239.61,712.45 C239.61,712.35,239.71,712.25,239.81,712.25 C239.9,712.25,239.95,712.32,240,712.38 C240.12,712.53,240.35,712.81,240.79,713.03 C240.86,713.07,240.96,713.11,240.96,713.23 C240.96,713.33,240.89,713.38,240.82,713.43 C240.6,713.58,240.49,713.76,240.41,714 C240.39,714.09,240.35,714.22,240.21,714.22 C240.07,714.22,240.01,714.09,240.01,714.01 C240.01,713.96,240.09,713.64,240.25,713.43 H236.9 C236.73,713.43,236.55,713.43,236.55,713.23 C236.55,713.04,236.73,713.04,236.9,713.04 Z " /><path
           id="path3194"
           fill="black"
           stroke-width="0"
           d="M235.93,707.71 L235.93,707.7 L235.93,707.68 L235.92,707.67 L235.92,707.65 L235.91,707.62 L235.91,707.59 L235.9,707.56 L235.89,707.52 L235.88,707.49 L235.88,707.46 L235.87,707.45 L235.87,707.43 L235.87,707.42 L235.86,707.4 L235.86,707.39 L235.86,707.38 L235.86,707.36 L235.85,707.35 L235.85,707.34 L235.85,707.33 L235.85,707.32 L235.85,707.31 L235.84,707.3 L235.84,707.3 L235.84,707.29 L235.84,707.28 C235.84,707.1,235.98,707.02,236.13,707.02 C236.25,707.02,236.43,707.09,236.5,707.29 C236.52,707.33,236.86,708.68,236.9,708.86 C236.98,709.19,237.16,709.89,237.22,710.16 C237.26,710.28,237.53,710.75,237.77,710.97 C237.85,711.04,238.14,711.3,238.57,711.3 C238.83,711.3,238.98,711.18,238.99,711.18 C238.69,711.13,238.47,710.89,238.47,710.63 C238.47,710.47,238.58,710.28,238.85,710.28 C239.12,710.28,239.4,710.51,239.4,710.87 C239.4,711.22,239.08,711.52,238.57,711.52 C237.92,711.52,237.48,711.03,237.29,710.75 C237.22,711.2,236.86,711.52,236.39,711.52 C235.93,711.52,235.74,711.13,235.65,710.95 C235.48,710.61,235.35,710.02,235.35,709.99 C235.35,709.89,235.45,709.89,235.46,709.89 C235.56,709.89,235.57,709.9,235.63,710.11 C235.8,710.82,236,711.3,236.36,711.3 C236.53,711.3,236.67,711.22,236.67,710.84 C236.67,710.63,236.64,710.52,236.51,710.01 Z " /><path
           id="path3196"
           fill="black"
           stroke-width="0"
           d="M241.85,707.14 L241.85,707.2 L241.85,707.25 L241.84,707.31 L241.84,707.37 L241.83,707.42 L241.83,707.47 L241.82,707.53 L241.81,707.57 L241.79,707.62 L241.78,707.67 L241.77,707.71 L241.75,707.75 L241.74,707.79 L241.72,707.83 L241.7,707.87 L241.68,707.9 L241.66,707.94 L241.63,707.97 L241.61,707.99 L241.59,708.02 L241.56,708.05 L241.53,708.07 L241.51,708.09 L241.48,708.11 L241.45,708.12 L241.42,708.14 L241.39,708.15 L241.35,708.16 L241.32,708.17 L241.29,708.17 L241.25,708.18 L241.21,708.18 C240.88,708.18,240.69,707.93,240.69,707.65 C240.69,707.38,240.88,707.12,241.21,707.12 C241.33,707.12,241.46,707.16,241.56,707.25 C241.59,707.27,241.6,707.28,241.61,707.28 C241.62,707.28,241.63,707.27,241.63,707.14 C241.63,706.4,241.28,705.8,240.96,705.48 C240.85,705.37,240.85,705.35,240.85,705.32 C240.85,705.25,240.9,705.21,240.95,705.21 C241.05,705.21,241.85,705.97,241.85,707.14 Z " /><path
           id="path3198"
           fill="black"
           stroke-width="0"
           d="M246.3,711.1 H247.24 C247.44,711.1,247.54,711.1,247.54,711.3 C247.54,711.41,247.44,711.41,247.26,711.41 H246.38 C246.74,712.82,246.79,713.02,246.79,713.08 C246.79,713.24,246.67,713.34,246.5,713.34 C246.47,713.34,246.19,713.33,246.1,712.99 L245.71,711.41 H244.78 C244.58,711.41,244.48,711.41,244.48,711.22 C244.48,711.1,244.56,711.1,244.76,711.1 H245.63 C244.92,708.28,244.88,708.11,244.88,707.93 C244.88,707.39,245.26,707.02,245.79,707.02 C246.81,707.02,247.38,708.47,247.38,708.55 C247.38,708.65,247.3,708.65,247.26,708.65 C247.17,708.65,247.16,708.61,247.11,708.51 C246.68,707.47,246.15,707.23,245.81,707.23 C245.6,707.23,245.51,707.36,245.51,707.69 C245.51,707.93,245.53,708,245.57,708.17 Z " /><path
           id="path3200"
           fill="black"
           stroke-width="0"
           d="M254.13,709.41 H256.91 C257.05,709.41,257.24,709.41,257.24,709.61 C257.24,709.81,257.05,709.81,256.91,709.81 H254.13 V712.59 C254.13,712.73,254.13,712.92,253.94,712.92 C253.74,712.92,253.74,712.73,253.74,712.59 V709.81 H250.95 C250.81,709.81,250.62,709.81,250.62,709.61 C250.62,709.41,250.81,709.41,250.95,709.41 H253.74 V706.63 C253.74,706.49,253.74,706.3,253.94,706.3 C254.13,706.3,254.13,706.49,254.13,706.63 Z " /><path
           id="path3202"
           fill="black"
           stroke-width="0"
           d="M264.42,714.06 L264.42,714.07 L264.41,714.08 L264.41,714.09 L264.4,714.1 L264.39,714.11 L264.39,714.12 L264.38,714.13 L264.38,714.14 L264.37,714.15 L264.37,714.16 L264.36,714.17 L264.36,714.17 L264.35,714.18 L264.34,714.19 L264.34,714.19 L264.33,714.2 L264.33,714.2 L264.32,714.21 L264.31,714.21 L264.3,714.22 L264.29,714.22 L264.29,714.22 L264.28,714.23 L264.27,714.23 L264.26,714.23 L264.25,714.23 L264.23,714.23 L264.22,714.24 L264.21,714.24 L264.2,714.24 L264.18,714.24 L264.17,714.24 C264,714.24,263.98,714.19,263.91,714.06 L263.85,713.24 L266.52,707.88 H261.16 L263.85,713.24 L263.91,714.06 L260.54,707.32 C260.49,707.23,260.49,707.21,260.49,707.2 C260.49,707.12,260.55,707.12,260.71,707.12 H267.62 C267.78,707.12,267.84,707.12,267.84,707.2 C267.84,707.21,267.84,707.23,267.79,707.32 Z " /><path
           id="path3204"
           fill="black"
           stroke-width="0"
           d="M270.38,711.1 H271.32 C271.52,711.1,271.61,711.1,271.61,711.3 C271.61,711.41,271.52,711.41,271.34,711.41 H270.46 C270.82,712.82,270.87,713.02,270.87,713.08 C270.87,713.24,270.75,713.34,270.58,713.34 C270.55,713.34,270.27,713.33,270.18,712.99 L269.79,711.41 H268.86 C268.66,711.41,268.56,711.41,268.56,711.22 C268.56,711.1,268.64,711.1,268.84,711.1 H269.71 C269,708.28,268.96,708.11,268.96,707.93 C268.96,707.39,269.34,707.02,269.87,707.02 C270.89,707.02,271.45,708.47,271.45,708.55 C271.45,708.65,271.38,708.65,271.34,708.65 C271.25,708.65,271.24,708.61,271.19,708.51 C270.76,707.47,270.23,707.23,269.89,707.23 C269.68,707.23,269.58,707.36,269.58,707.69 C269.58,707.93,269.6,708,269.64,708.17 Z " /><path
           id="path3206"
           fill="black"
           stroke-width="0"
           d="M274.8,709.61 L274.8,709.68 L274.8,709.76 L274.8,709.84 L274.8,709.92 L274.79,710.09 L274.78,710.26 L274.76,710.44 L274.74,710.63 L274.71,710.83 L274.68,711.03 L274.64,711.23 L274.59,711.44 L274.54,711.65 L274.48,711.86 L274.41,712.07 L274.33,712.28 L274.29,712.39 L274.24,712.5 L274.2,712.6 L274.15,712.71 C273.55,713.93,272.69,714.58,272.6,714.58 C272.54,714.58,272.49,714.54,272.49,714.48 C272.49,714.45,272.49,714.43,272.68,714.25 C273.66,713.26,274.23,711.68,274.23,709.61 C274.23,707.91,273.86,706.16,272.62,704.91 C272.49,704.79,272.49,704.77,272.49,704.74 C272.49,704.68,272.54,704.64,272.6,704.64 C272.69,704.64,273.59,705.32,274.18,706.58 C274.68,707.67,274.8,708.77,274.8,709.61 Z " /></g><g
         id="g3272"
         transform="matrix(2.000000,0,0,-2.000000,-400.000000,1500.000000)"
         xml:space="preserve"
         stroke="black"
         stroke-linecap="butt"
         stroke-linejoin="miter"
         stroke-miterlimit="10.433"
         stroke-dasharray="none"
         stroke-dashoffset="0"
         stroke-opacity="1"
         fill="none"
         fill-rule="evenodd"
         fill-opacity="1"
         font-style="normal"
         font-variant="normal"
         font-weight="normal"
         font-stretch="normal"
         font-size-adjust="none"
         letter-spacing="normal"
         word-spacing="normal"
         text-anchor="start"
         ns0:text="text"
         ns0:preamble=""><path
           d="M225.15,711.1 H226.58 V711.41 H225.15 V713.23 H224.9 C224.9,712.42,224.6,711.36,223.62,711.32 V711.1 H224.47 V708.36 C224.47,707.14,225.39,707.02,225.75,707.02 C226.46,707.02,226.74,707.72,226.74,708.36 V708.92 H226.49 V708.38 C226.49,707.64,226.19,707.26,225.82,707.26 C225.15,707.26,225.15,708.17,225.15,708.34 Z "
           stroke-width="0"
           fill="black"
           id="path3274" /><path
           d="M228.41,709.42 L228.42,709.63 C228.48,711.11,229.32,711.36,229.65,711.36 C230.68,711.36,230.78,710.02,230.78,709.63 H228.42 L228.41,709.42 H231.19 C231.41,709.42,231.43,709.42,231.43,709.63 C231.43,710.61,230.9,711.58,229.65,711.58 C228.5,711.58,227.59,710.55,227.59,709.31 C227.59,707.98,228.63,707.02,229.77,707.02 C230.99,707.02,231.43,708.12,231.43,708.31 C231.43,708.41,231.36,708.43,231.31,708.43 C231.22,708.43,231.2,708.37,231.18,708.29 C230.83,707.26,229.93,707.26,229.83,707.26 C229.34,707.26,228.94,707.56,228.71,707.93 C228.41,708.41,228.41,709.06,228.41,709.42 Z "
           stroke-width="0"
           fill="black"
           id="path3276" /><path
           d="M234.59,709.46 L234.65,709.53 L234.7,709.61 L234.76,709.68 L234.82,709.76 L234.95,709.91 L235.01,709.99 L235.07,710.07 L235.13,710.14 L235.19,710.21 L235.25,710.28 L235.3,710.35 L235.33,710.38 L235.36,710.41 L235.38,710.45 L235.41,710.48 L235.43,710.5 L235.46,710.53 L235.48,710.56 L235.51,710.58 C235.81,710.94,236.22,711.09,236.69,711.1 V711.41 C236.43,711.39,236.13,711.38,235.87,711.38 C235.57,711.38,235.05,711.4,234.92,711.41 V711.1 C235.13,711.08,235.21,710.95,235.21,710.79 C235.21,710.63,235.11,710.5,235.06,710.44 L234.44,709.67 L233.66,710.67 C233.57,710.77,233.57,710.79,233.57,710.85 C233.57,711,233.72,711.09,233.92,711.1 V711.41 C233.66,711.4,233.01,711.38,232.85,711.38 C232.64,711.38,232.17,711.39,231.9,711.41 V711.1 C232.6,711.1,232.61,711.09,233.08,710.49 L234.06,709.21 L233.13,708.03 C232.65,707.45,232.06,707.43,231.85,707.43 V707.12 C232.11,707.15,232.42,707.16,232.68,707.16 C232.97,707.16,233.38,707.14,233.62,707.12 V707.43 C233.4,707.46,233.34,707.59,233.34,707.74 C233.34,707.96,233.62,708.29,234.23,709 L234.99,708.01 C235.07,707.9,235.2,707.74,235.2,707.68 C235.2,707.59,235.11,707.44,234.84,707.43 V707.12 C235.14,707.14,235.69,707.16,235.91,707.16 C236.18,707.16,236.57,707.15,236.87,707.12 V707.43 C236.33,707.43,236.15,707.45,235.92,707.74 Z "
           stroke-width="0"
           fill="black"
           id="path3278" /><path
           d="M238.71,711.1 H240.14 V711.41 H238.71 V713.23 H238.46 C238.46,712.42,238.16,711.36,237.18,711.32 V711.1 H238.03 V708.36 C238.03,707.14,238.95,707.02,239.31,707.02 C240.02,707.02,240.29,707.72,240.29,708.36 V708.92 H240.05 V708.38 C240.05,707.64,239.75,707.26,239.38,707.26 C238.71,707.26,238.71,708.17,238.71,708.34 Z "
           stroke-width="0"
           fill="black"
           id="path3280" /></g><g
         ns0:preamble=""
         ns0:text="text"
         text-anchor="start"
         word-spacing="normal"
         letter-spacing="normal"
         font-size-adjust="none"
         font-stretch="normal"
         font-weight="normal"
         font-variant="normal"
         font-style="normal"
         fill-opacity="1"
         fill-rule="evenodd"
         fill="none"
         stroke-opacity="1"
         stroke-dashoffset="0"
         stroke-dasharray="none"
         stroke-miterlimit="10.433"
         stroke-linejoin="miter"
         stroke-linecap="butt"
         stroke="black"
         xml:space="preserve"
         transform="matrix(2.000000,0,0,-2.000000,-400.000000,1500.000000)"
         id="g3356"><path
           id="path3358"
           fill="black"
           stroke-width="0"
           d="M225.15,711.1 H226.58 V711.41 H225.15 V713.23 H224.9 C224.9,712.42,224.6,711.36,223.62,711.32 V711.1 H224.47 V708.36 C224.47,707.14,225.39,707.02,225.75,707.02 C226.46,707.02,226.74,707.72,226.74,708.36 V708.92 H226.49 V708.38 C226.49,707.64,226.19,707.26,225.82,707.26 C225.15,707.26,225.15,708.17,225.15,708.34 Z " /><path
           id="path3360"
           fill="black"
           stroke-width="0"
           d="M228.41,709.42 L228.42,709.63 C228.48,711.11,229.32,711.36,229.65,711.36 C230.68,711.36,230.78,710.02,230.78,709.63 H228.42 L228.41,709.42 H231.19 C231.41,709.42,231.43,709.42,231.43,709.63 C231.43,710.61,230.9,711.58,229.65,711.58 C228.5,711.58,227.59,710.55,227.59,709.31 C227.59,707.98,228.63,707.02,229.77,707.02 C230.99,707.02,231.43,708.12,231.43,708.31 C231.43,708.41,231.36,708.43,231.31,708.43 C231.22,708.43,231.2,708.37,231.18,708.29 C230.83,707.26,229.93,707.26,229.83,707.26 C229.34,707.26,228.94,707.56,228.71,707.93 C228.41,708.41,228.41,709.06,228.41,709.42 Z " /><path
           id="path3362"
           fill="black"
           stroke-width="0"
           d="M234.59,709.46 L234.65,709.53 L234.7,709.61 L234.76,709.68 L234.82,709.76 L234.95,709.91 L235.01,709.99 L235.07,710.07 L235.13,710.14 L235.19,710.21 L235.25,710.28 L235.3,710.35 L235.33,710.38 L235.36,710.41 L235.38,710.45 L235.41,710.48 L235.43,710.5 L235.46,710.53 L235.48,710.56 L235.51,710.58 C235.81,710.94,236.22,711.09,236.69,711.1 V711.41 C236.43,711.39,236.13,711.38,235.87,711.38 C235.57,711.38,235.05,711.4,234.92,711.41 V711.1 C235.13,711.08,235.21,710.95,235.21,710.79 C235.21,710.63,235.11,710.5,235.06,710.44 L234.44,709.67 L233.66,710.67 C233.57,710.77,233.57,710.79,233.57,710.85 C233.57,711,233.72,711.09,233.92,711.1 V711.41 C233.66,711.4,233.01,711.38,232.85,711.38 C232.64,711.38,232.17,711.39,231.9,711.41 V711.1 C232.6,711.1,232.61,711.09,233.08,710.49 L234.06,709.21 L233.13,708.03 C232.65,707.45,232.06,707.43,231.85,707.43 V707.12 C232.11,707.15,232.42,707.16,232.68,707.16 C232.97,707.16,233.38,707.14,233.62,707.12 V707.43 C233.4,707.46,233.34,707.59,233.34,707.74 C233.34,707.96,233.62,708.29,234.23,709 L234.99,708.01 C235.07,707.9,235.2,707.74,235.2,707.68 C235.2,707.59,235.11,707.44,234.84,707.43 V707.12 C235.14,707.14,235.69,707.16,235.91,707.16 C236.18,707.16,236.57,707.15,236.87,707.12 V707.43 C236.33,707.43,236.15,707.45,235.92,707.74 Z " /><path
           id="path3364"
           fill="black"
           stroke-width="0"
           d="M238.71,711.1 H240.14 V711.41 H238.71 V713.23 H238.46 C238.46,712.42,238.16,711.36,237.18,711.32 V711.1 H238.03 V708.36 C238.03,707.14,238.95,707.02,239.31,707.02 C240.02,707.02,240.29,707.72,240.29,708.36 V708.92 H240.05 V708.38 C240.05,707.64,239.75,707.26,239.38,707.26 C238.71,707.26,238.71,708.17,238.71,708.34 Z " /></g><text
         xml:space="preserve"
         style="font-size:40px;font-style:normal;font-weight:normal;line-height:125%;letter-spacing:0px;word-spacing:0px;fill:#000000;fill-opacity:1;stroke:none;font-family:Sans"
         x="140.71429"
         y="50.933613"
         id="text3407"
         sodipodi:linespacing="125%"
         transform="matrix(0.25,0,0,-0.25,198.92857,726.96428)"><tspan
           sodipodi:role="line"
           id="tspan3409"
           x="140.71429"
           y="50.933613" /></text>
</g>    <g
       ns0:preamble=""
       ns0:text="$ \\Psi ( \\vec{r} , t + \\Delta t ) $"
       word-spacing="normal"
       letter-spacing="normal"
       font-size-adjust="none"
       font-stretch="normal"
       font-weight="normal"
       font-variant="normal"
       font-style="normal"
       stroke-miterlimit="10.433"
       xml:space="preserve"
       transform="matrix(3.5,0,0,-3.5,-673,2635.9972)"
       id="g3828"
       style="font-style:normal;font-variant:normal;font-weight:normal;font-stretch:normal;letter-spacing:normal;word-spacing:normal;text-anchor:start;fill:#aa0000;stroke:#aa0000;stroke-linecap:butt;stroke-linejoin:miter;stroke-miterlimit:10.43299960999999954;stroke-opacity:1;stroke-dasharray:none;stroke-dashoffset:0"><path
         id="path3830"
         d="m 227.68,713.12 0,0.04 0,0.03 0,0.02 0,0.03 0,0.03 0.01,0.02 0,0.03 0,0.02 0.01,0.02 0.01,0.03 0.01,0.02 0.01,0.01 0.01,0.02 0.02,0.02 0.02,0.02 0.02,0.01 0.02,0.01 0.01,0.01 0.02,0.01 0.01,0 0.02,0.01 0.01,0 0.02,0.01 0.02,0.01 0.02,0 0.02,0 0.02,0.01 0.02,0 0.02,0.01 0.02,0 0.03,0 0.02,0.01 0.03,0 0.03,0 0.03,0.01 0.03,0 0.03,0 0.03,0 0.03,0.01 0.04,0 0.03,0 0.04,0 0.04,0 0.04,0 0.04,0 0.04,0 0.05,0 h 0.32 v 0.31 c -0.35,-0.03 -1.27,-0.03 -1.68,-0.03 -0.41,0 -1.33,0 -1.69,0.03 v -0.31 h 0.33 c 0.94,0 0.94,-0.13 0.94,-0.48 v -4.41 c -1.3,0.35 -1.35,1.88 -1.35,2.53 -0.01,1.2 -0.45,1.39 -0.88,1.39 h -0.37 c -0.15,0 -0.25,0 -0.25,-0.11 0,-0.05 0.03,-0.1 0.09,-0.11 0.33,-0.04 0.58,-0.18 0.59,-1.35 0,-0.23 0.03,-1.01 0.5,-1.68 0.39,-0.54 1,-0.83 1.67,-0.91 v -0.56 c 0,-0.34 0,-0.48 -0.94,-0.48 h -0.33 v -0.31 c 0.36,0.04 1.27,0.04 1.68,0.04 0.41,0 1.34,0 1.69,-0.04 v 0.31 h -0.32 c -0.95,0 -0.95,0.13 -0.95,0.48 v 0.56 c 0.72,0.08 1.32,0.38 1.71,0.9 0.52,0.71 0.53,1.49 0.53,1.93 0,0.16 0.01,1.04 0.55,1.11 0.06,0.01 0.13,0.02 0.13,0.11 0,0.11 -0.08,0.11 -0.24,0.11 h -0.38 c -0.39,0 -0.88,-0.07 -0.89,-1.51 -0.01,-1.09 -0.33,-2.15 -1.41,-2.41 z"
         inkscape:connector-curvature="0"
         style="fill:#aa0000;stroke-width:0;stroke:#aa0000;stroke-opacity:1" /><path
         id="path3832"
         d="m 234.47,704.74 0,0.01 0,0 0,0 0,0.01 0,0 0,0 0,0.01 0,0 0,0 0,0.01 -0.01,0 0,0.01 0,0 -0.01,0.01 0,0 -0.01,0.01 0,0.01 -0.01,0 0,0.01 0,0 -0.01,0.01 0,0 0,0 -0.01,0.01 0,0 -0.01,0.01 0,0 -0.01,0.01 0,0 -0.01,0.01 0,0 -0.01,0.01 0,0.01 -0.01,0 -0.01,0.01 0,0.01 -0.01,0 -0.01,0.01 0,0.01 -0.01,0 -0.01,0.01 -0.01,0.01 c -1.24,1.25 -1.56,3.13 -1.56,4.65 0,1.73 0.38,3.46 1.61,4.7 0.12,0.12 0.12,0.14 0.12,0.17 0,0.07 -0.04,0.1 -0.09,0.1 -0.11,0 -1,-0.68 -1.59,-1.94 -0.5,-1.09 -0.62,-2.2 -0.62,-3.03 0,-0.78 0.1,-1.98 0.65,-3.1 0.6,-1.22 1.45,-1.87 1.56,-1.87 0.05,0 0.09,0.03 0.09,0.1 z"
         inkscape:connector-curvature="0"
         style="fill:#aa0000;stroke-width:0;stroke:#aa0000;stroke-opacity:1" /><path
         id="path3834"
         d="m 240.08,713.04 -0.01,-0.02 -0.02,-0.01 -0.01,-0.01 -0.02,-0.02 -0.02,-0.01 -0.01,-0.02 -0.02,-0.02 -0.02,-0.01 -0.02,-0.02 -0.02,-0.02 -0.04,-0.04 -0.04,-0.04 -0.04,-0.04 -0.01,-0.02 -0.02,-0.02 -0.02,-0.02 -0.02,-0.02 -0.01,-0.02 -0.02,-0.02 -0.01,-0.02 -0.01,-0.02 -0.02,-0.02 -0.01,-0.02 0,-0.02 -0.01,-0.02 -0.01,-0.02 0,-0.02 -0.01,-0.01 0,-0.02 c 0,-0.1 0.1,-0.2 0.2,-0.2 0.09,0 0.14,0.07 0.19,0.13 0.12,0.15 0.35,0.43 0.79,0.65 0.07,0.04 0.17,0.08 0.17,0.2 0,0.1 -0.07,0.15 -0.14,0.2 -0.22,0.15 -0.33,0.33 -0.41,0.57 -0.02,0.09 -0.06,0.22 -0.2,0.22 -0.14,0 -0.2,-0.13 -0.2,-0.21 0,-0.05 0.08,-0.37 0.24,-0.58 h -3.35 c -0.17,0 -0.35,0 -0.35,-0.2 0,-0.19 0.18,-0.19 0.35,-0.19 z"
         inkscape:connector-curvature="0"
         style="fill:#aa0000;stroke-width:0;stroke:#aa0000;stroke-opacity:1" /><path
         id="path3836"
         d="m 235.93,707.71 0,-0.01 0,-0.02 -0.01,-0.01 0,-0.02 -0.01,-0.03 0,-0.03 -0.01,-0.03 -0.01,-0.04 -0.01,-0.03 0,-0.03 -0.01,-0.01 0,-0.02 0,-0.01 -0.01,-0.02 0,-0.01 0,-0.01 0,-0.02 -0.01,-0.01 0,-0.01 0,-0.01 0,-0.01 0,-0.01 -0.01,-0.01 0,0 0,-0.01 0,-0.01 c 0,-0.18 0.14,-0.26 0.29,-0.26 0.12,0 0.3,0.07 0.37,0.27 0.02,0.04 0.36,1.39 0.4,1.57 0.08,0.33 0.26,1.03 0.32,1.3 0.04,0.12 0.31,0.59 0.55,0.81 0.08,0.07 0.37,0.33 0.8,0.33 0.26,0 0.41,-0.12 0.42,-0.12 -0.3,-0.05 -0.52,-0.29 -0.52,-0.55 0,-0.16 0.11,-0.35 0.38,-0.35 0.27,0 0.55,0.23 0.55,0.59 0,0.35 -0.32,0.65 -0.83,0.65 -0.65,0 -1.09,-0.49 -1.28,-0.77 -0.07,0.45 -0.43,0.77 -0.9,0.77 -0.46,0 -0.65,-0.39 -0.74,-0.57 -0.17,-0.34 -0.3,-0.93 -0.3,-0.96 0,-0.1 0.1,-0.1 0.11,-0.1 0.1,0 0.11,0.01 0.17,0.22 0.17,0.71 0.37,1.19 0.73,1.19 0.17,0 0.31,-0.08 0.31,-0.46 0,-0.21 -0.03,-0.32 -0.16,-0.83 z"
         inkscape:connector-curvature="0"
         style="fill:#aa0000;stroke-width:0;stroke:#aa0000;stroke-opacity:1" /><path
         id="path3838"
         d="m 241.85,707.14 0,0.06 0,0.05 -0.01,0.06 0,0.06 -0.01,0.05 0,0.05 -0.01,0.06 -0.01,0.04 -0.02,0.05 -0.01,0.05 -0.01,0.04 -0.02,0.04 -0.01,0.04 -0.02,0.04 -0.02,0.04 -0.02,0.03 -0.02,0.04 -0.03,0.03 -0.02,0.02 -0.02,0.03 -0.03,0.03 -0.03,0.02 -0.02,0.02 -0.03,0.02 -0.03,0.01 -0.03,0.02 -0.03,0.01 -0.04,0.01 -0.03,0.01 -0.03,0 -0.04,0.01 -0.04,0 c -0.33,0 -0.52,-0.25 -0.52,-0.53 0,-0.27 0.19,-0.53 0.52,-0.53 0.12,0 0.25,0.04 0.35,0.13 0.03,0.02 0.04,0.03 0.05,0.03 0.01,0 0.02,-0.01 0.02,-0.14 0,-0.74 -0.35,-1.34 -0.67,-1.66 -0.11,-0.11 -0.11,-0.13 -0.11,-0.16 0,-0.07 0.05,-0.11 0.1,-0.11 0.1,0 0.9,0.76 0.9,1.93 z"
         inkscape:connector-curvature="0"
         style="fill:#aa0000;stroke-width:0;stroke:#aa0000;stroke-opacity:1" /><path
         id="path3840"
         d="m 246.3,711.1 h 0.94 c 0.2,0 0.3,0 0.3,0.2 0,0.11 -0.1,0.11 -0.28,0.11 h -0.88 c 0.36,1.41 0.41,1.61 0.41,1.67 0,0.16 -0.12,0.26 -0.29,0.26 -0.03,0 -0.31,-0.01 -0.4,-0.35 l -0.39,-1.58 h -0.93 c -0.2,0 -0.3,0 -0.3,-0.19 0,-0.12 0.08,-0.12 0.28,-0.12 h 0.87 c -0.71,-2.82 -0.75,-2.99 -0.75,-3.17 0,-0.54 0.38,-0.91 0.91,-0.91 1.02,0 1.59,1.45 1.59,1.53 0,0.1 -0.08,0.1 -0.12,0.1 -0.09,0 -0.1,-0.04 -0.15,-0.14 -0.43,-1.04 -0.96,-1.28 -1.3,-1.28 -0.21,0 -0.3,0.13 -0.3,0.46 0,0.24 0.02,0.31 0.06,0.48 z"
         inkscape:connector-curvature="0"
         style="fill:#aa0000;stroke-width:0;stroke:#aa0000;stroke-opacity:1" /><path
         id="path3842"
         d="m 254.13,709.41 h 2.78 c 0.14,0 0.33,0 0.33,0.2 0,0.2 -0.19,0.2 -0.33,0.2 h -2.78 v 2.78 c 0,0.14 0,0.33 -0.19,0.33 -0.2,0 -0.2,-0.19 -0.2,-0.33 v -2.78 h -2.79 c -0.14,0 -0.33,0 -0.33,-0.2 0,-0.2 0.19,-0.2 0.33,-0.2 h 2.79 v -2.78 c 0,-0.14 0,-0.33 0.2,-0.33 0.19,0 0.19,0.19 0.19,0.33 z"
         inkscape:connector-curvature="0"
         style="fill:#aa0000;stroke-width:0;stroke:#aa0000;stroke-opacity:1" /><path
         id="path3844"
         d="m 264.42,714.06 0,0.01 -0.01,0.01 0,0.01 -0.01,0.01 -0.01,0.01 0,0.01 -0.01,0.01 0,0.01 -0.01,0.01 0,0.01 -0.01,0.01 0,0 -0.01,0.01 -0.01,0.01 0,0 -0.01,0.01 0,0 -0.01,0.01 -0.01,0 -0.01,0.01 -0.01,0 0,0 -0.01,0.01 -0.01,0 -0.01,0 -0.01,0 -0.02,0 -0.01,0.01 -0.01,0 -0.01,0 -0.02,0 -0.01,0 c -0.17,0 -0.19,-0.05 -0.26,-0.18 l -0.06,-0.82 2.67,-5.36 h -5.36 l 2.69,5.36 0.06,0.82 -3.37,-6.74 c -0.05,-0.09 -0.05,-0.11 -0.05,-0.12 0,-0.08 0.06,-0.08 0.22,-0.08 h 6.91 c 0.16,0 0.22,0 0.22,0.08 0,0.01 0,0.03 -0.05,0.12 z"
         inkscape:connector-curvature="0"
         style="fill:#aa0000;stroke-width:0;stroke:#aa0000;stroke-opacity:1" /><path
         id="path3846"
         d="m 270.38,711.1 h 0.94 c 0.2,0 0.29,0 0.29,0.2 0,0.11 -0.09,0.11 -0.27,0.11 h -0.88 c 0.36,1.41 0.41,1.61 0.41,1.67 0,0.16 -0.12,0.26 -0.29,0.26 -0.03,0 -0.31,-0.01 -0.4,-0.35 l -0.39,-1.58 h -0.93 c -0.2,0 -0.3,0 -0.3,-0.19 0,-0.12 0.08,-0.12 0.28,-0.12 h 0.87 c -0.71,-2.82 -0.75,-2.99 -0.75,-3.17 0,-0.54 0.38,-0.91 0.91,-0.91 1.02,0 1.58,1.45 1.58,1.53 0,0.1 -0.07,0.1 -0.11,0.1 -0.09,0 -0.1,-0.04 -0.15,-0.14 -0.43,-1.04 -0.96,-1.28 -1.3,-1.28 -0.21,0 -0.31,0.13 -0.31,0.46 0,0.24 0.02,0.31 0.06,0.48 z"
         inkscape:connector-curvature="0"
         style="fill:#aa0000;stroke-width:0;stroke:#aa0000;stroke-opacity:1" /><path
         id="path3848"
         d="m 274.8,709.61 0,0.07 0,0.08 0,0.08 0,0.08 -0.01,0.17 -0.01,0.17 -0.02,0.18 -0.02,0.19 -0.03,0.2 -0.03,0.2 -0.04,0.2 -0.05,0.21 -0.05,0.21 -0.06,0.21 -0.07,0.21 -0.08,0.21 -0.04,0.11 -0.05,0.11 -0.04,0.1 -0.05,0.11 c -0.6,1.22 -1.46,1.87 -1.55,1.87 -0.06,0 -0.11,-0.04 -0.11,-0.1 0,-0.03 0,-0.05 0.19,-0.23 0.98,-0.99 1.55,-2.57 1.55,-4.64 0,-1.7 -0.37,-3.45 -1.61,-4.7 -0.13,-0.12 -0.13,-0.14 -0.13,-0.17 0,-0.06 0.05,-0.1 0.11,-0.1 0.09,0 0.99,0.68 1.58,1.94 0.5,1.09 0.62,2.19 0.62,3.03 z"
         inkscape:connector-curvature="0"
         style="fill:#aa0000;stroke-width:0;stroke:#aa0000;stroke-opacity:1" /></g>    <g
       style="font-style:normal;font-variant:normal;font-weight:normal;font-stretch:normal;letter-spacing:normal;word-spacing:normal;text-anchor:start;fill:#aa0000;stroke:#aa0000;stroke-linecap:butt;stroke-linejoin:miter;stroke-miterlimit:10.43299960999999954;stroke-opacity:1;stroke-dasharray:none;stroke-dashoffset:0;fill-opacity:1"
       id="g3977"
       transform="matrix(3.5,0,0,-3.5,-628.775,3035.9972)"
       xml:space="preserve"
       stroke-miterlimit="10.433"
       font-style="normal"
       font-variant="normal"
       font-weight="normal"
       font-stretch="normal"
       font-size-adjust="none"
       letter-spacing="normal"
       word-spacing="normal"
       ns0:text="$ \\Psi ( \\vec{r} , t ) $"
       ns0:preamble=""><path
         style="fill:#aa0000;stroke-width:0;stroke:#aa0000;stroke-opacity:1;fill-opacity:1"
         inkscape:connector-curvature="0"
         d="m 227.68,713.12 0,0.04 0,0.03 0,0.02 0,0.03 0,0.03 0.01,0.02 0,0.03 0,0.02 0.01,0.02 0.01,0.03 0.01,0.02 0.01,0.01 0.01,0.02 0.02,0.02 0.02,0.02 0.02,0.01 0.02,0.01 0.01,0.01 0.02,0.01 0.01,0 0.02,0.01 0.01,0 0.02,0.01 0.02,0.01 0.02,0 0.02,0 0.02,0.01 0.02,0 0.02,0.01 0.02,0 0.03,0 0.02,0.01 0.03,0 0.03,0 0.03,0.01 0.03,0 0.03,0 0.03,0 0.03,0.01 0.04,0 0.03,0 0.04,0 0.04,0 0.04,0 0.04,0 0.04,0 0.05,0 h 0.32 v 0.31 c -0.35,-0.03 -1.27,-0.03 -1.68,-0.03 -0.41,0 -1.33,0 -1.69,0.03 v -0.31 h 0.33 c 0.94,0 0.94,-0.13 0.94,-0.48 v -4.41 c -1.3,0.35 -1.35,1.88 -1.35,2.53 -0.01,1.2 -0.45,1.39 -0.88,1.39 h -0.37 c -0.15,0 -0.25,0 -0.25,-0.11 0,-0.05 0.03,-0.1 0.09,-0.11 0.33,-0.04 0.58,-0.18 0.59,-1.35 0,-0.23 0.03,-1.01 0.5,-1.68 0.39,-0.54 1,-0.83 1.67,-0.91 v -0.56 c 0,-0.34 0,-0.48 -0.94,-0.48 h -0.33 v -0.31 c 0.36,0.04 1.27,0.04 1.68,0.04 0.41,0 1.34,0 1.69,-0.04 v 0.31 h -0.32 c -0.95,0 -0.95,0.13 -0.95,0.48 v 0.56 c 0.72,0.08 1.32,0.38 1.71,0.9 0.52,0.71 0.53,1.49 0.53,1.93 0,0.16 0.01,1.04 0.55,1.11 0.06,0.01 0.13,0.02 0.13,0.11 0,0.11 -0.08,0.11 -0.24,0.11 h -0.38 c -0.39,0 -0.88,-0.07 -0.89,-1.51 -0.01,-1.09 -0.33,-2.15 -1.41,-2.41 z"
         id="path3979" /><path
         style="fill:#aa0000;stroke-width:0;stroke:#aa0000;stroke-opacity:1;fill-opacity:1"
         inkscape:connector-curvature="0"
         d="m 234.47,704.74 0,0.01 0,0 0,0 0,0.01 0,0 0,0 0,0.01 0,0 0,0 0,0.01 -0.01,0 0,0.01 0,0 -0.01,0.01 0,0 -0.01,0.01 0,0.01 -0.01,0 0,0.01 0,0 -0.01,0.01 0,0 0,0 -0.01,0.01 0,0 -0.01,0.01 0,0 -0.01,0.01 0,0 -0.01,0.01 0,0 -0.01,0.01 0,0.01 -0.01,0 -0.01,0.01 0,0.01 -0.01,0 -0.01,0.01 0,0.01 -0.01,0 -0.01,0.01 -0.01,0.01 c -1.24,1.25 -1.56,3.13 -1.56,4.65 0,1.73 0.38,3.46 1.61,4.7 0.12,0.12 0.12,0.14 0.12,0.17 0,0.07 -0.04,0.1 -0.09,0.1 -0.11,0 -1,-0.68 -1.59,-1.94 -0.5,-1.09 -0.62,-2.2 -0.62,-3.03 0,-0.78 0.1,-1.98 0.65,-3.1 0.6,-1.22 1.45,-1.87 1.56,-1.87 0.05,0 0.09,0.03 0.09,0.1 z"
         id="path3981" /><path
         style="fill:#aa0000;stroke-width:0;stroke:#aa0000;stroke-opacity:1;fill-opacity:1"
         inkscape:connector-curvature="0"
         d="m 240.08,713.04 -0.01,-0.02 -0.02,-0.01 -0.01,-0.01 -0.02,-0.02 -0.02,-0.01 -0.01,-0.02 -0.02,-0.02 -0.02,-0.01 -0.02,-0.02 -0.02,-0.02 -0.04,-0.04 -0.04,-0.04 -0.04,-0.04 -0.01,-0.02 -0.02,-0.02 -0.02,-0.02 -0.02,-0.02 -0.01,-0.02 -0.02,-0.02 -0.01,-0.02 -0.01,-0.02 -0.02,-0.02 -0.01,-0.02 0,-0.02 -0.01,-0.02 -0.01,-0.02 0,-0.02 -0.01,-0.01 0,-0.02 c 0,-0.1 0.1,-0.2 0.2,-0.2 0.09,0 0.14,0.07 0.19,0.13 0.12,0.15 0.35,0.43 0.79,0.65 0.07,0.04 0.17,0.08 0.17,0.2 0,0.1 -0.07,0.15 -0.14,0.2 -0.22,0.15 -0.33,0.33 -0.41,0.57 -0.02,0.09 -0.06,0.22 -0.2,0.22 -0.14,0 -0.2,-0.13 -0.2,-0.21 0,-0.05 0.08,-0.37 0.24,-0.58 h -3.35 c -0.17,0 -0.35,0 -0.35,-0.2 0,-0.19 0.18,-0.19 0.35,-0.19 z"
         id="path3983" /><path
         style="fill:#aa0000;stroke-width:0;stroke:#aa0000;stroke-opacity:1;fill-opacity:1"
         inkscape:connector-curvature="0"
         d="m 235.93,707.71 0,-0.01 0,-0.02 -0.01,-0.01 0,-0.02 -0.01,-0.03 0,-0.03 -0.01,-0.03 -0.01,-0.04 -0.01,-0.03 0,-0.03 -0.01,-0.01 0,-0.02 0,-0.01 -0.01,-0.02 0,-0.01 0,-0.01 0,-0.02 -0.01,-0.01 0,-0.01 0,-0.01 0,-0.01 0,-0.01 -0.01,-0.01 0,0 0,-0.01 0,-0.01 c 0,-0.18 0.14,-0.26 0.29,-0.26 0.12,0 0.3,0.07 0.37,0.27 0.02,0.04 0.36,1.39 0.4,1.57 0.08,0.33 0.26,1.03 0.32,1.3 0.04,0.12 0.31,0.59 0.55,0.81 0.08,0.07 0.37,0.33 0.8,0.33 0.26,0 0.41,-0.12 0.42,-0.12 -0.3,-0.05 -0.52,-0.29 -0.52,-0.55 0,-0.16 0.11,-0.35 0.38,-0.35 0.27,0 0.55,0.23 0.55,0.59 0,0.35 -0.32,0.65 -0.83,0.65 -0.65,0 -1.09,-0.49 -1.28,-0.77 -0.07,0.45 -0.43,0.77 -0.9,0.77 -0.46,0 -0.65,-0.39 -0.74,-0.57 -0.17,-0.34 -0.3,-0.93 -0.3,-0.96 0,-0.1 0.1,-0.1 0.11,-0.1 0.1,0 0.11,0.01 0.17,0.22 0.17,0.71 0.37,1.19 0.73,1.19 0.17,0 0.31,-0.08 0.31,-0.46 0,-0.21 -0.03,-0.32 -0.16,-0.83 z"
         id="path3985" /><path
         style="fill:#aa0000;stroke-width:0;stroke:#aa0000;stroke-opacity:1;fill-opacity:1"
         inkscape:connector-curvature="0"
         d="m 241.85,707.14 0,0.06 0,0.05 -0.01,0.06 0,0.06 -0.01,0.05 0,0.05 -0.01,0.06 -0.01,0.04 -0.02,0.05 -0.01,0.05 -0.01,0.04 -0.02,0.04 -0.01,0.04 -0.02,0.04 -0.02,0.04 -0.02,0.03 -0.02,0.04 -0.03,0.03 -0.02,0.02 -0.02,0.03 -0.03,0.03 -0.03,0.02 -0.02,0.02 -0.03,0.02 -0.03,0.01 -0.03,0.02 -0.03,0.01 -0.04,0.01 -0.03,0.01 -0.03,0 -0.04,0.01 -0.04,0 c -0.33,0 -0.52,-0.25 -0.52,-0.53 0,-0.27 0.19,-0.53 0.52,-0.53 0.12,0 0.25,0.04 0.35,0.13 0.03,0.02 0.04,0.03 0.05,0.03 0.01,0 0.02,-0.01 0.02,-0.14 0,-0.74 -0.35,-1.34 -0.67,-1.66 -0.11,-0.11 -0.11,-0.13 -0.11,-0.16 0,-0.07 0.05,-0.11 0.1,-0.11 0.1,0 0.9,0.76 0.9,1.93 z"
         id="path3987" /><path
         style="fill:#aa0000;stroke-width:0;stroke:#aa0000;stroke-opacity:1;fill-opacity:1"
         inkscape:connector-curvature="0"
         d="m 246.3,711.1 h 0.94 c 0.2,0 0.3,0 0.3,0.2 0,0.11 -0.1,0.11 -0.28,0.11 h -0.88 c 0.36,1.41 0.41,1.61 0.41,1.67 0,0.16 -0.12,0.26 -0.29,0.26 -0.03,0 -0.31,-0.01 -0.4,-0.35 l -0.39,-1.58 h -0.93 c -0.2,0 -0.3,0 -0.3,-0.19 0,-0.12 0.08,-0.12 0.28,-0.12 h 0.87 c -0.71,-2.82 -0.75,-2.99 -0.75,-3.17 0,-0.54 0.38,-0.91 0.91,-0.91 1.02,0 1.59,1.45 1.59,1.53 0,0.1 -0.08,0.1 -0.12,0.1 -0.09,0 -0.1,-0.04 -0.15,-0.14 -0.43,-1.04 -0.96,-1.28 -1.3,-1.28 -0.21,0 -0.3,0.13 -0.3,0.46 0,0.24 0.02,0.31 0.06,0.48 z"
         id="path3989" /><path
         style="fill:#aa0000;stroke-width:0;stroke:#aa0000;stroke-opacity:1;fill-opacity:1"
         inkscape:connector-curvature="0"
         d="m 250.73,709.61 0,0.07 0,0.08 -0.01,0.08 0,0.08 -0.01,0.17 -0.01,0.17 -0.01,0.18 -0.03,0.19 -0.02,0.2 -0.04,0.2 -0.04,0.2 -0.04,0.21 -0.05,0.21 -0.07,0.21 -0.07,0.21 -0.07,0.21 -0.05,0.11 -0.04,0.11 -0.05,0.1 -0.05,0.11 c -0.6,1.22 -1.45,1.87 -1.55,1.87 -0.06,0 -0.1,-0.04 -0.1,-0.1 0,-0.03 0,-0.05 0.19,-0.23 0.97,-0.99 1.54,-2.57 1.54,-4.64 0,-1.7 -0.37,-3.45 -1.6,-4.7 -0.13,-0.12 -0.13,-0.14 -0.13,-0.17 0,-0.06 0.04,-0.1 0.1,-0.1 0.1,0 0.99,0.68 1.58,1.94 0.51,1.09 0.63,2.19 0.63,3.03 z"
         id="path3991" /></g>    <g
       ns0:preamble=""
       ns0:text="$ \\vec{F} ( \\vec{r} , t ) $"
       word-spacing="normal"
       letter-spacing="normal"
       font-size-adjust="none"
       font-stretch="normal"
       font-weight="normal"
       font-variant="normal"
       font-style="normal"
       stroke-miterlimit="10.433"
       xml:space="preserve"
       transform="matrix(3.5,0,0,-3.5,-330.515,3039.7772)"
       id="g4907"
       style="font-style:normal;font-variant:normal;font-weight:normal;font-stretch:normal;letter-spacing:normal;word-spacing:normal;text-anchor:start;fill:#0000aa;stroke:#000000;stroke-linecap:butt;stroke-linejoin:miter;stroke-miterlimit:10.43299960999999954;stroke-opacity:1;stroke-dasharray:none;stroke-dashoffset:0;fill-opacity:1"><path
         id="path4909"
         d="m 230.24,715.55 -0.01,-0.01 -0.01,-0.01 -0.02,-0.02 -0.02,-0.01 -0.01,-0.02 -0.02,-0.01 -0.02,-0.02 -0.02,-0.02 -0.02,-0.01 -0.02,-0.02 -0.04,-0.04 -0.03,-0.04 -0.04,-0.04 -0.02,-0.02 -0.02,-0.02 -0.02,-0.02 -0.01,-0.02 -0.02,-0.02 -0.01,-0.02 -0.02,-0.02 -0.01,-0.02 -0.01,-0.02 -0.01,-0.02 -0.01,-0.02 -0.01,-0.02 -0.01,-0.02 0,-0.02 0,-0.02 0,-0.01 c 0,-0.1 0.1,-0.2 0.2,-0.2 0.09,0 0.13,0.07 0.18,0.13 0.12,0.15 0.35,0.43 0.79,0.64 0.07,0.04 0.17,0.09 0.17,0.21 0,0.1 -0.07,0.15 -0.14,0.2 -0.22,0.15 -0.33,0.33 -0.41,0.57 -0.02,0.09 -0.06,0.22 -0.2,0.22 -0.14,0 -0.2,-0.13 -0.2,-0.21 0,-0.05 0.08,-0.37 0.24,-0.58 h -3.35 c -0.17,0 -0.35,0 -0.35,-0.2 0,-0.2 0.18,-0.2 0.35,-0.2 z"
         inkscape:connector-curvature="0"
         style="fill:#0000aa;stroke-width:0;fill-opacity:1" /><path
         id="path4911"
         d="m 226.45,710.35 h 0.96 c 0.75,0 0.83,-0.15 0.83,-0.44 0,-0.07 0,-0.19 -0.07,-0.49 -0.02,-0.05 -0.03,-0.09 -0.03,-0.11 0,-0.08 0.06,-0.12 0.12,-0.12 0.1,0 0.1,0.03 0.15,0.21 l 0.54,2.15 c 0.03,0.11 0.03,0.13 0.03,0.16 0,0.02 -0.02,0.11 -0.12,0.11 -0.1,0 -0.1,-0.05 -0.15,-0.21 -0.2,-0.77 -0.43,-0.95 -1.28,-0.95 h -0.9 l 0.63,2.52 c 0.09,0.35 0.1,0.39 0.54,0.39 h 1.31 c 1.23,0 1.46,-0.33 1.46,-1.09 0,-0.23 0,-0.27 -0.03,-0.54 -0.02,-0.13 -0.02,-0.15 -0.02,-0.18 0,-0.05 0.03,-0.11 0.12,-0.11 0.11,0 0.11,0.06 0.14,0.24 l 0.19,1.72 c 0.03,0.27 -0.02,0.27 -0.27,0.27 h -4.87 c -0.2,0 -0.3,0 -0.3,-0.2 0,-0.11 0.09,-0.11 0.28,-0.11 0.37,0 0.65,0 0.65,-0.18 0,-0.04 0,-0.06 -0.05,-0.23 l -1.32,-5.26 c -0.09,-0.39 -0.11,-0.47 -0.9,-0.47 -0.17,0 -0.28,0 -0.28,-0.19 0,-0.12 0.12,-0.12 0.15,-0.12 0.29,0 1.02,0.04 1.31,0.04 0.33,0 1.16,-0.04 1.49,-0.04 0.09,0 0.2,0 0.2,0.19 0,0.08 -0.06,0.1 -0.06,0.11 -0.03,0.01 -0.05,0.01 -0.27,0.01 -0.22,0 -0.27,0 -0.52,0.02 -0.29,0.03 -0.32,0.07 -0.32,0.2 0,0.02 0,0.08 0.04,0.23 z"
         inkscape:connector-curvature="0"
         style="fill:#0000aa;stroke-width:0;fill-opacity:1" /><path
         id="path4913"
         d="m 234.51,704.74 0,0.01 0,0 0,0 0,0.01 0,0 0,0 0,0.01 0,0 0,0 0,0.01 -0.01,0 0,0.01 0,0 -0.01,0.01 0,0 -0.01,0.01 0,0.01 -0.01,0 0,0.01 0,0 -0.01,0.01 0,0 0,0 -0.01,0.01 0,0 -0.01,0.01 0,0 -0.01,0.01 0,0 -0.01,0.01 0,0 -0.01,0.01 0,0.01 -0.01,0 0,0.01 -0.01,0.01 -0.01,0 0,0.01 -0.01,0.01 -0.01,0 -0.01,0.01 0,0.01 c -1.25,1.25 -1.57,3.13 -1.57,4.65 0,1.73 0.38,3.46 1.61,4.7 0.12,0.12 0.12,0.14 0.12,0.17 0,0.07 -0.03,0.1 -0.09,0.1 -0.1,0 -1,-0.68 -1.59,-1.94 -0.5,-1.09 -0.62,-2.2 -0.62,-3.03 0,-0.78 0.11,-1.98 0.65,-3.1 0.6,-1.22 1.46,-1.87 1.56,-1.87 0.06,0 0.09,0.03 0.09,0.1 z"
         inkscape:connector-curvature="0"
         style="fill:#0000aa;stroke-width:0;fill-opacity:1" /><path
         id="path4915"
         d="m 240.12,713.04 -0.01,-0.02 -0.02,-0.01 -0.01,-0.01 -0.02,-0.02 -0.02,-0.01 -0.01,-0.02 -0.02,-0.02 -0.02,-0.01 -0.02,-0.02 -0.02,-0.02 -0.04,-0.04 -0.04,-0.04 -0.03,-0.04 -0.02,-0.02 -0.02,-0.02 -0.02,-0.02 -0.01,-0.02 -0.02,-0.02 -0.02,-0.02 -0.01,-0.02 -0.01,-0.02 -0.01,-0.02 -0.01,-0.02 -0.01,-0.02 -0.01,-0.02 -0.01,-0.02 0,-0.02 -0.01,-0.01 0,-0.02 c 0,-0.1 0.1,-0.2 0.2,-0.2 0.09,0 0.14,0.07 0.19,0.13 0.12,0.15 0.35,0.43 0.79,0.65 0.07,0.04 0.17,0.08 0.17,0.2 0,0.1 -0.07,0.15 -0.14,0.2 -0.22,0.15 -0.33,0.33 -0.41,0.57 -0.02,0.09 -0.06,0.22 -0.2,0.22 -0.14,0 -0.2,-0.13 -0.2,-0.21 0,-0.05 0.08,-0.37 0.24,-0.58 h -3.35 c -0.17,0 -0.35,0 -0.35,-0.2 0,-0.19 0.18,-0.19 0.35,-0.19 z"
         inkscape:connector-curvature="0"
         style="fill:#0000aa;stroke-width:0;fill-opacity:1" /><path
         id="path4917"
         d="m 235.97,707.71 0,-0.01 0,-0.02 -0.01,-0.01 0,-0.02 -0.01,-0.03 0,-0.03 -0.01,-0.03 -0.01,-0.04 -0.01,-0.03 0,-0.03 -0.01,-0.01 0,-0.02 0,-0.01 -0.01,-0.02 0,-0.01 0,-0.01 0,-0.02 -0.01,-0.01 0,-0.01 0,-0.01 0,-0.01 0,-0.01 0,-0.01 -0.01,0 0,-0.01 0,-0.01 c 0,-0.18 0.14,-0.26 0.29,-0.26 0.12,0 0.3,0.07 0.37,0.27 0.02,0.04 0.36,1.39 0.4,1.57 0.08,0.33 0.26,1.03 0.32,1.3 0.04,0.12 0.31,0.59 0.55,0.81 0.08,0.07 0.37,0.33 0.8,0.33 0.26,0 0.41,-0.12 0.42,-0.12 -0.3,-0.05 -0.52,-0.29 -0.52,-0.55 0,-0.16 0.11,-0.35 0.38,-0.35 0.27,0 0.55,0.23 0.55,0.59 0,0.35 -0.32,0.65 -0.83,0.65 -0.65,0 -1.09,-0.49 -1.27,-0.77 -0.08,0.45 -0.44,0.77 -0.91,0.77 -0.46,0 -0.65,-0.39 -0.73,-0.57 -0.18,-0.34 -0.31,-0.93 -0.31,-0.96 0,-0.1 0.1,-0.1 0.12,-0.1 0.09,0 0.11,0.01 0.17,0.22 0.16,0.71 0.36,1.19 0.72,1.19 0.17,0 0.31,-0.08 0.31,-0.46 0,-0.21 -0.03,-0.32 -0.16,-0.83 z"
         inkscape:connector-curvature="0"
         style="fill:#0000aa;stroke-width:0;fill-opacity:1" /><path
         id="path4919"
         d="m 241.89,707.14 0,0.06 0,0.05 0,0.06 -0.01,0.06 -0.01,0.05 0,0.05 -0.01,0.06 -0.01,0.04 -0.01,0.05 -0.02,0.05 -0.01,0.04 -0.02,0.04 -0.01,0.04 -0.02,0.04 -0.02,0.04 -0.02,0.03 -0.02,0.04 -0.02,0.03 -0.03,0.02 -0.02,0.03 -0.03,0.03 -0.03,0.02 -0.02,0.02 -0.03,0.02 -0.03,0.01 -0.03,0.02 -0.03,0.01 -0.04,0.01 -0.03,0.01 -0.03,0 -0.04,0.01 -0.03,0 c -0.33,0 -0.53,-0.25 -0.53,-0.53 0,-0.27 0.2,-0.53 0.53,-0.53 0.11,0 0.24,0.04 0.34,0.13 0.03,0.02 0.04,0.03 0.05,0.03 0.01,0 0.02,-0.01 0.02,-0.14 0,-0.74 -0.35,-1.34 -0.67,-1.66 -0.11,-0.11 -0.11,-0.13 -0.11,-0.16 0,-0.07 0.05,-0.11 0.1,-0.11 0.11,0 0.9,0.76 0.9,1.93 z"
         inkscape:connector-curvature="0"
         style="fill:#0000aa;stroke-width:0;fill-opacity:1" /><path
         id="path4921"
         d="m 246.34,711.1 h 0.94 c 0.2,0 0.3,0 0.3,0.2 0,0.11 -0.1,0.11 -0.28,0.11 h -0.88 c 0.36,1.41 0.41,1.61 0.41,1.67 0,0.16 -0.12,0.26 -0.29,0.26 -0.03,0 -0.31,-0.01 -0.4,-0.35 l -0.38,-1.58 h -0.94 c -0.2,0 -0.3,0 -0.3,-0.19 0,-0.12 0.08,-0.12 0.28,-0.12 h 0.88 c -0.72,-2.82 -0.76,-2.99 -0.76,-3.17 0,-0.54 0.38,-0.91 0.92,-0.91 1.01,0 1.58,1.45 1.58,1.53 0,0.1 -0.08,0.1 -0.12,0.1 -0.09,0 -0.1,-0.04 -0.15,-0.14 -0.43,-1.04 -0.96,-1.28 -1.3,-1.28 -0.2,0 -0.3,0.13 -0.3,0.46 0,0.24 0.02,0.31 0.06,0.48 z"
         inkscape:connector-curvature="0"
         style="fill:#0000aa;stroke-width:0;fill-opacity:1" /><path
         id="path4923"
         d="m 250.77,709.61 0,0.07 0,0.08 0,0.08 -0.01,0.08 0,0.17 -0.02,0.17 -0.01,0.18 -0.02,0.19 -0.03,0.2 -0.03,0.2 -0.04,0.2 -0.05,0.21 -0.05,0.21 -0.06,0.21 -0.07,0.21 -0.08,0.21 -0.04,0.11 -0.05,0.11 -0.05,0.1 -0.05,0.11 c -0.59,1.22 -1.45,1.87 -1.55,1.87 -0.06,0 -0.1,-0.04 -0.1,-0.1 0,-0.03 0,-0.05 0.19,-0.23 0.97,-0.99 1.54,-2.57 1.54,-4.64 0,-1.7 -0.37,-3.45 -1.6,-4.7 -0.13,-0.12 -0.13,-0.14 -0.13,-0.17 0,-0.06 0.04,-0.1 0.1,-0.1 0.1,0 1,0.68 1.58,1.94 0.51,1.09 0.63,2.19 0.63,3.03 z"
         inkscape:connector-curvature="0"
         style="fill:#0000aa;stroke-width:0;fill-opacity:1" /></g>    <g
       style="font-style:normal;font-variant:normal;font-weight:normal;font-stretch:normal;letter-spacing:normal;word-spacing:normal;text-anchor:start;fill:#0000aa;stroke:#0000aa;stroke-linecap:butt;stroke-linejoin:miter;stroke-miterlimit:10.43299960999999954;stroke-opacity:1;stroke-dasharray:none;stroke-dashoffset:0;fill-opacity:1"
       id="g5065"
       transform="matrix(3.5,0,0,-3.5,-372.655,2639.7772)"
       xml:space="preserve"
       stroke-miterlimit="10.433"
       font-style="normal"
       font-variant="normal"
       font-weight="normal"
       font-stretch="normal"
       font-size-adjust="none"
       letter-spacing="normal"
       word-spacing="normal"
       ns0:text="$ \\vec{F} ( \\vec{r} , t + \\Delta t ) $"
       ns0:preamble=""><path
         style="fill:#0000aa;stroke-width:0;stroke:#0000aa;stroke-opacity:1;fill-opacity:1"
         inkscape:connector-curvature="0"
         d="m 230.24,715.55 -0.01,-0.01 -0.01,-0.01 -0.02,-0.02 -0.02,-0.01 -0.01,-0.02 -0.02,-0.01 -0.02,-0.02 -0.02,-0.02 -0.02,-0.01 -0.02,-0.02 -0.04,-0.04 -0.03,-0.04 -0.04,-0.04 -0.02,-0.02 -0.02,-0.02 -0.02,-0.02 -0.01,-0.02 -0.02,-0.02 -0.01,-0.02 -0.02,-0.02 -0.01,-0.02 -0.01,-0.02 -0.01,-0.02 -0.01,-0.02 -0.01,-0.02 -0.01,-0.02 0,-0.02 0,-0.02 0,-0.01 c 0,-0.1 0.1,-0.2 0.2,-0.2 0.09,0 0.13,0.07 0.18,0.13 0.12,0.15 0.35,0.43 0.79,0.64 0.07,0.04 0.17,0.09 0.17,0.21 0,0.1 -0.07,0.15 -0.14,0.2 -0.22,0.15 -0.33,0.33 -0.41,0.57 -0.02,0.09 -0.06,0.22 -0.2,0.22 -0.14,0 -0.2,-0.13 -0.2,-0.21 0,-0.05 0.08,-0.37 0.24,-0.58 h -3.35 c -0.17,0 -0.35,0 -0.35,-0.2 0,-0.2 0.18,-0.2 0.35,-0.2 z"
         id="path5067" /><path
         style="fill:#0000aa;stroke-width:0;stroke:#0000aa;stroke-opacity:1;fill-opacity:1"
         inkscape:connector-curvature="0"
         d="m 226.45,710.35 h 0.96 c 0.75,0 0.83,-0.15 0.83,-0.44 0,-0.07 0,-0.19 -0.07,-0.49 -0.02,-0.05 -0.03,-0.09 -0.03,-0.11 0,-0.08 0.06,-0.12 0.12,-0.12 0.1,0 0.1,0.03 0.15,0.21 l 0.54,2.15 c 0.03,0.11 0.03,0.13 0.03,0.16 0,0.02 -0.02,0.11 -0.12,0.11 -0.1,0 -0.1,-0.05 -0.15,-0.21 -0.2,-0.77 -0.43,-0.95 -1.28,-0.95 h -0.9 l 0.63,2.52 c 0.09,0.35 0.1,0.39 0.54,0.39 h 1.31 c 1.23,0 1.46,-0.33 1.46,-1.09 0,-0.23 0,-0.27 -0.03,-0.54 -0.02,-0.13 -0.02,-0.15 -0.02,-0.18 0,-0.05 0.03,-0.11 0.12,-0.11 0.11,0 0.11,0.06 0.14,0.24 l 0.19,1.72 c 0.03,0.27 -0.02,0.27 -0.27,0.27 h -4.87 c -0.2,0 -0.3,0 -0.3,-0.2 0,-0.11 0.09,-0.11 0.28,-0.11 0.37,0 0.65,0 0.65,-0.18 0,-0.04 0,-0.06 -0.05,-0.23 l -1.32,-5.26 c -0.09,-0.39 -0.11,-0.47 -0.9,-0.47 -0.17,0 -0.28,0 -0.28,-0.19 0,-0.12 0.12,-0.12 0.15,-0.12 0.29,0 1.02,0.04 1.31,0.04 0.33,0 1.16,-0.04 1.49,-0.04 0.09,0 0.2,0 0.2,0.19 0,0.08 -0.06,0.1 -0.06,0.11 -0.03,0.01 -0.05,0.01 -0.27,0.01 -0.22,0 -0.27,0 -0.52,0.02 -0.29,0.03 -0.32,0.07 -0.32,0.2 0,0.02 0,0.08 0.04,0.23 z"
         id="path5069" /><path
         style="fill:#0000aa;stroke-width:0;stroke:#0000aa;stroke-opacity:1;fill-opacity:1"
         inkscape:connector-curvature="0"
         d="m 234.51,704.74 0,0.01 0,0 0,0 0,0.01 0,0 0,0 0,0.01 0,0 0,0 0,0.01 -0.01,0 0,0.01 0,0 -0.01,0.01 0,0 -0.01,0.01 0,0.01 -0.01,0 0,0.01 0,0 -0.01,0.01 0,0 0,0 -0.01,0.01 0,0 -0.01,0.01 0,0 -0.01,0.01 0,0 -0.01,0.01 0,0 -0.01,0.01 0,0.01 -0.01,0 0,0.01 -0.01,0.01 -0.01,0 0,0.01 -0.01,0.01 -0.01,0 -0.01,0.01 0,0.01 c -1.25,1.25 -1.57,3.13 -1.57,4.65 0,1.73 0.38,3.46 1.61,4.7 0.12,0.12 0.12,0.14 0.12,0.17 0,0.07 -0.03,0.1 -0.09,0.1 -0.1,0 -1,-0.68 -1.59,-1.94 -0.5,-1.09 -0.62,-2.2 -0.62,-3.03 0,-0.78 0.11,-1.98 0.65,-3.1 0.6,-1.22 1.46,-1.87 1.56,-1.87 0.06,0 0.09,0.03 0.09,0.1 z"
         id="path5071" /><path
         style="fill:#0000aa;stroke-width:0;stroke:#0000aa;stroke-opacity:1;fill-opacity:1"
         inkscape:connector-curvature="0"
         d="m 240.12,713.04 -0.01,-0.02 -0.02,-0.01 -0.01,-0.01 -0.02,-0.02 -0.02,-0.01 -0.01,-0.02 -0.02,-0.02 -0.02,-0.01 -0.02,-0.02 -0.02,-0.02 -0.04,-0.04 -0.04,-0.04 -0.03,-0.04 -0.02,-0.02 -0.02,-0.02 -0.02,-0.02 -0.01,-0.02 -0.02,-0.02 -0.02,-0.02 -0.01,-0.02 -0.01,-0.02 -0.01,-0.02 -0.01,-0.02 -0.01,-0.02 -0.01,-0.02 -0.01,-0.02 0,-0.02 -0.01,-0.01 0,-0.02 c 0,-0.1 0.1,-0.2 0.2,-0.2 0.09,0 0.14,0.07 0.19,0.13 0.12,0.15 0.35,0.43 0.79,0.65 0.07,0.04 0.17,0.08 0.17,0.2 0,0.1 -0.07,0.15 -0.14,0.2 -0.22,0.15 -0.33,0.33 -0.41,0.57 -0.02,0.09 -0.06,0.22 -0.2,0.22 -0.14,0 -0.2,-0.13 -0.2,-0.21 0,-0.05 0.08,-0.37 0.24,-0.58 h -3.35 c -0.17,0 -0.35,0 -0.35,-0.2 0,-0.19 0.18,-0.19 0.35,-0.19 z"
         id="path5073" /><path
         style="fill:#0000aa;stroke-width:0;stroke:#0000aa;stroke-opacity:1;fill-opacity:1"
         inkscape:connector-curvature="0"
         d="m 235.97,707.71 0,-0.01 0,-0.02 -0.01,-0.01 0,-0.02 -0.01,-0.03 0,-0.03 -0.01,-0.03 -0.01,-0.04 -0.01,-0.03 0,-0.03 -0.01,-0.01 0,-0.02 0,-0.01 -0.01,-0.02 0,-0.01 0,-0.01 0,-0.02 -0.01,-0.01 0,-0.01 0,-0.01 0,-0.01 0,-0.01 0,-0.01 -0.01,0 0,-0.01 0,-0.01 c 0,-0.18 0.14,-0.26 0.29,-0.26 0.12,0 0.3,0.07 0.37,0.27 0.02,0.04 0.36,1.39 0.4,1.57 0.08,0.33 0.26,1.03 0.32,1.3 0.04,0.12 0.31,0.59 0.55,0.81 0.08,0.07 0.37,0.33 0.8,0.33 0.26,0 0.41,-0.12 0.42,-0.12 -0.3,-0.05 -0.52,-0.29 -0.52,-0.55 0,-0.16 0.11,-0.35 0.38,-0.35 0.27,0 0.55,0.23 0.55,0.59 0,0.35 -0.32,0.65 -0.83,0.65 -0.65,0 -1.09,-0.49 -1.27,-0.77 -0.08,0.45 -0.44,0.77 -0.91,0.77 -0.46,0 -0.65,-0.39 -0.73,-0.57 -0.18,-0.34 -0.31,-0.93 -0.31,-0.96 0,-0.1 0.1,-0.1 0.12,-0.1 0.09,0 0.11,0.01 0.17,0.22 0.16,0.71 0.36,1.19 0.72,1.19 0.17,0 0.31,-0.08 0.31,-0.46 0,-0.21 -0.03,-0.32 -0.16,-0.83 z"
         id="path5075" /><path
         style="fill:#0000aa;stroke-width:0;stroke:#0000aa;stroke-opacity:1;fill-opacity:1"
         inkscape:connector-curvature="0"
         d="m 241.89,707.14 0,0.06 0,0.05 0,0.06 -0.01,0.06 -0.01,0.05 0,0.05 -0.01,0.06 -0.01,0.04 -0.01,0.05 -0.02,0.05 -0.01,0.04 -0.02,0.04 -0.01,0.04 -0.02,0.04 -0.02,0.04 -0.02,0.03 -0.02,0.04 -0.02,0.03 -0.03,0.02 -0.02,0.03 -0.03,0.03 -0.03,0.02 -0.02,0.02 -0.03,0.02 -0.03,0.01 -0.03,0.02 -0.03,0.01 -0.04,0.01 -0.03,0.01 -0.03,0 -0.04,0.01 -0.03,0 c -0.33,0 -0.53,-0.25 -0.53,-0.53 0,-0.27 0.2,-0.53 0.53,-0.53 0.11,0 0.24,0.04 0.34,0.13 0.03,0.02 0.04,0.03 0.05,0.03 0.01,0 0.02,-0.01 0.02,-0.14 0,-0.74 -0.35,-1.34 -0.67,-1.66 -0.11,-0.11 -0.11,-0.13 -0.11,-0.16 0,-0.07 0.05,-0.11 0.1,-0.11 0.11,0 0.9,0.76 0.9,1.93 z"
         id="path5077" /><path
         style="fill:#0000aa;stroke-width:0;stroke:#0000aa;stroke-opacity:1;fill-opacity:1"
         inkscape:connector-curvature="0"
         d="m 246.34,711.1 h 0.94 c 0.2,0 0.3,0 0.3,0.2 0,0.11 -0.1,0.11 -0.28,0.11 h -0.88 c 0.36,1.41 0.41,1.61 0.41,1.67 0,0.16 -0.12,0.26 -0.29,0.26 -0.03,0 -0.31,-0.01 -0.4,-0.35 l -0.38,-1.58 h -0.94 c -0.2,0 -0.3,0 -0.3,-0.19 0,-0.12 0.08,-0.12 0.28,-0.12 h 0.88 c -0.72,-2.82 -0.76,-2.99 -0.76,-3.17 0,-0.54 0.38,-0.91 0.92,-0.91 1.01,0 1.58,1.45 1.58,1.53 0,0.1 -0.08,0.1 -0.12,0.1 -0.09,0 -0.1,-0.04 -0.15,-0.14 -0.43,-1.04 -0.96,-1.28 -1.3,-1.28 -0.2,0 -0.3,0.13 -0.3,0.46 0,0.24 0.02,0.31 0.06,0.48 z"
         id="path5079" /><path
         style="fill:#0000aa;stroke-width:0;stroke:#0000aa;stroke-opacity:1;fill-opacity:1"
         inkscape:connector-curvature="0"
         d="m 254.18,709.41 h 2.77 c 0.14,0 0.33,0 0.33,0.2 0,0.2 -0.19,0.2 -0.33,0.2 h -2.77 v 2.78 c 0,0.14 0,0.33 -0.2,0.33 -0.2,0 -0.2,-0.19 -0.2,-0.33 v -2.78 h -2.79 c -0.14,0 -0.33,0 -0.33,-0.2 0,-0.2 0.19,-0.2 0.33,-0.2 h 2.79 v -2.78 c 0,-0.14 0,-0.33 0.2,-0.33 0.2,0 0.2,0.19 0.2,0.33 z"
         id="path5081" /><path
         style="fill:#0000aa;stroke-width:0;stroke:#0000aa;stroke-opacity:1;fill-opacity:1"
         inkscape:connector-curvature="0"
         d="m 264.47,714.06 -0.01,0.01 -0.01,0.01 0,0.01 -0.01,0.01 0,0.01 -0.01,0.01 0,0.01 -0.01,0.01 -0.01,0.01 0,0.01 -0.01,0.01 0,0 -0.01,0.01 0,0.01 -0.01,0 -0.01,0.01 0,0 -0.01,0.01 -0.01,0 0,0.01 -0.01,0 -0.01,0 -0.01,0.01 -0.01,0 -0.01,0 -0.01,0 -0.01,0 -0.02,0.01 -0.01,0 -0.01,0 -0.02,0 -0.01,0 c -0.17,0 -0.19,-0.05 -0.26,-0.18 l -0.06,-0.82 2.68,-5.36 h -5.37 l 2.69,5.36 0.06,0.82 -3.36,-6.74 c -0.05,-0.09 -0.05,-0.11 -0.05,-0.12 0,-0.08 0.06,-0.08 0.22,-0.08 h 6.9 c 0.16,0 0.22,0 0.22,0.08 0,0.01 0,0.03 -0.05,0.12 z"
         id="path5083" /><path
         style="fill:#0000aa;stroke-width:0;stroke:#0000aa;stroke-opacity:1;fill-opacity:1"
         inkscape:connector-curvature="0"
         d="m 270.42,711.1 h 0.94 c 0.2,0 0.29,0 0.29,0.2 0,0.11 -0.09,0.11 -0.27,0.11 h -0.88 c 0.36,1.41 0.41,1.61 0.41,1.67 0,0.16 -0.12,0.26 -0.29,0.26 -0.03,0 -0.31,-0.01 -0.4,-0.35 l -0.39,-1.58 h -0.93 c -0.2,0 -0.3,0 -0.3,-0.19 0,-0.12 0.08,-0.12 0.28,-0.12 h 0.88 c -0.72,-2.82 -0.76,-2.99 -0.76,-3.17 0,-0.54 0.38,-0.91 0.91,-0.91 1.02,0 1.59,1.45 1.59,1.53 0,0.1 -0.08,0.1 -0.12,0.1 -0.09,0 -0.1,-0.04 -0.15,-0.14 -0.43,-1.04 -0.96,-1.28 -1.3,-1.28 -0.2,0 -0.3,0.13 -0.3,0.46 0,0.24 0.01,0.31 0.05,0.48 z"
         id="path5085" /><path
         style="fill:#0000aa;stroke-width:0;stroke:#0000aa;stroke-opacity:1;fill-opacity:1"
         inkscape:connector-curvature="0"
         d="m 274.85,709.61 -0.01,0.07 0,0.08 0,0.08 0,0.08 -0.01,0.17 -0.01,0.17 -0.02,0.18 -0.02,0.19 -0.03,0.2 -0.03,0.2 -0.04,0.2 -0.04,0.21 -0.06,0.21 -0.06,0.21 -0.07,0.21 -0.08,0.21 -0.04,0.11 -0.04,0.11 -0.05,0.1 -0.05,0.11 c -0.6,1.22 -1.45,1.87 -1.55,1.87 -0.06,0 -0.1,-0.04 -0.1,-0.1 0,-0.03 0,-0.05 0.19,-0.23 0.97,-0.99 1.54,-2.57 1.54,-4.64 0,-1.7 -0.37,-3.45 -1.6,-4.7 -0.13,-0.12 -0.13,-0.14 -0.13,-0.17 0,-0.06 0.04,-0.1 0.1,-0.1 0.1,0 0.99,0.68 1.58,1.94 0.51,1.09 0.63,2.19 0.63,3.03 z"
         id="path5087" /></g>    <path
       inkscape:connector-curvature="0"
       id="path5204"
       d="m 200.03882,184.65322 -0.076,342.76448 0,0"
       style="fill:none;stroke:#aa0000;stroke-width:3.96319032;stroke-linecap:butt;stroke-linejoin:miter;stroke-miterlimit:4;stroke-opacity:1;stroke-dasharray:none;marker-start:url(#Arrow1Mstart8x)" />
    <path
       inkscape:connector-curvature="0"
       id="path5204-3"
       d="m 500.08526,184.6638 -0.076,342.7434 0,0"
       style="fill:#000080;fill-opacity:1;stroke:#0000aa;stroke-width:3.98398352;stroke-linecap:butt;stroke-linejoin:miter;stroke-miterlimit:0;stroke-opacity:1;stroke-dasharray:none;marker-start:url(#Arrow1Mstart8t);marker-mid:none;display:inline" />
    <path
       style="fill:none;stroke:#0000aa;stroke-width:2.17026639000000010px;stroke-linecap:butt;stroke-linejoin:miter;stroke-opacity:1;display:inline"
       d="m 598.0359,128.44701 -196.95077,0 0,47.83004 31.26016,0 166.56959,0 z"
       id="path4214-5"
       inkscape:connector-curvature="0"
       sodipodi:nodetypes="cccccc" />
    <path
       style="fill:none;stroke:#aa0000;stroke-width:2.17026639000000010px;stroke-linecap:butt;stroke-linejoin:miter;stroke-opacity:1"
       d="m 298.03589,128.44701 -196.95076,0 0,47.83004 197.82974,0 z"
       id="path4214"
       inkscape:connector-curvature="0"
       sodipodi:nodetypes="ccccc" />
    <path
       style="fill:none;stroke:#0000aa;stroke-width:2.17026639000000010px;stroke-linecap:butt;stroke-linejoin:miter;stroke-opacity:1;display:inline"
       d="m 598.03589,528.44701 -196.95076,0 0,47.83004 197.82974,0 z"
       id="path4214-7"
       inkscape:connector-curvature="0"
       sodipodi:nodetypes="ccccc" />
    <path
       style="fill:none;stroke:#aa0000;stroke-width:2.17;stroke-linecap:butt;stroke-linejoin:miter;stroke-opacity:1;display:inline;stroke-miterlimit:4;stroke-dasharray:none"
       d="m 298.03589,528.44701 -196.95076,0 0,47.83004 197.82974,0 z"
       id="path4214-36"
       inkscape:connector-curvature="0"
       sodipodi:nodetypes="ccccc" />
    <g
       id="g5845"
       transform="matrix(1.6228303,-1.1689406,-1.1689406,-1.6228303,687.65542,1735.3503)"
       xml:space="preserve"
       stroke="black"
       stroke-linecap="butt"
       stroke-linejoin="miter"
       stroke-miterlimit="10.433"
       stroke-dasharray="none"
       stroke-dashoffset="0"
       stroke-opacity="1"
       fill="none"
       fill-rule="evenodd"
       fill-opacity="1"
       font-style="normal"
       font-variant="normal"
       font-weight="normal"
       font-stretch="normal"
       font-size-adjust="none"
       letter-spacing="normal"
       word-spacing="normal"
       text-anchor="start"
       ns0:text="$ \\hat{H}_{\\mathrm{int}} ( \\vec{r} , t + \\Delta t ) $"
       ns0:preamble=""
       style="font-style:normal;font-variant:normal;font-weight:normal;font-stretch:normal;letter-spacing:normal;word-spacing:normal;text-anchor:start;fill:#0000fc;stroke:#0000ff;stroke-linecap:butt;stroke-linejoin:miter;stroke-miterlimit:10.43299960999999954;stroke-opacity:1;stroke-dasharray:none;stroke-dashoffset:0;fill-opacity:1"><polygon
         points="228.53,716.54 227.19,715.19 227.37,715.01 228.53,716.02 229.67,715.01 229.85,715.19 "
         stroke-width="0"
         fill="black"
         id="polygon5847"
         style="stroke:#0000ff;stroke-opacity:1;fill:#0000fc;fill-opacity:1" /><path
         d="M231.02,713.15 L231.03,713.18 L231.04,713.21 L231.05,713.24 L231.05,713.27 L231.06,713.29 L231.07,713.32 L231.08,713.34 L231.09,713.37 L231.1,713.39 L231.11,713.41 L231.12,713.43 L231.14,713.45 L231.15,713.46 L231.17,713.48 L231.18,713.49 L231.2,713.51 L231.22,713.52 L231.25,713.53 L231.27,713.54 L231.3,713.55 L231.33,713.56 L231.36,713.57 L231.38,713.57 L231.4,713.57 L231.42,713.58 L231.43,713.58 L231.45,713.58 L231.48,713.59 L231.5,713.59 L231.52,713.59 L231.54,713.59 L231.57,713.59 L231.59,713.6 L231.62,713.6 L231.65,713.6 L231.67,713.6 L231.7,713.6 L231.73,713.6 L231.76,713.6 L231.79,713.6 L231.83,713.6 L231.86,713.6 C232.12,713.6,232.2,713.6,232.2,713.8 C232.2,713.91,232.09,713.91,232.06,713.91 C231.78,713.91,231.06,713.88,230.78,713.88 C230.5,713.88,229.79,713.91,229.5,713.91 C229.42,713.91,229.31,713.91,229.31,713.71 C229.31,713.6,229.4,713.6,229.59,713.6 C229.61,713.6,229.8,713.6,229.97,713.58 C230.15,713.56,230.24,713.55,230.24,713.42 C230.24,713.38,230.23,713.36,230.2,713.23 L229.6,710.81 H226.57 L227.15,713.15 C227.24,713.5,227.27,713.6,227.99,713.6 C228.25,713.6,228.33,713.6,228.33,713.8 C228.33,713.91,228.22,713.91,228.19,713.91 C227.91,713.91,227.19,713.88,226.91,713.88 C226.63,713.88,225.92,713.91,225.63,713.91 C225.55,713.91,225.44,713.91,225.44,713.71 C225.44,713.6,225.53,713.6,225.72,713.6 C225.74,713.6,225.93,713.6,226.1,713.58 C226.28,713.56,226.37,713.55,226.37,713.42 C226.37,713.38,226.36,713.35,226.33,713.23 L224.99,707.9 C224.9,707.51,224.88,707.43,224.09,707.43 C223.91,707.43,223.82,707.43,223.82,707.23 C223.82,707.12,223.94,707.12,223.96,707.12 C224.24,707.12,224.94,707.16,225.22,707.16 C225.43,707.16,225.65,707.15,225.86,707.15 C226.08,707.15,226.3,707.12,226.51,707.12 C226.59,707.12,226.71,707.12,226.71,707.32 C226.71,707.43,226.62,707.43,226.43,707.43 C226.06,707.43,225.78,707.43,225.78,707.61 C225.78,707.67,225.8,707.72,225.81,707.78 L226.49,710.5 H229.52 C229.1,708.85,228.87,707.91,228.83,707.76 C228.74,707.44,228.55,707.43,227.93,707.43 C227.78,707.43,227.69,707.43,227.69,707.23 C227.69,707.12,227.81,707.12,227.83,707.12 C228.11,707.12,228.82,707.16,229.09,707.16 C229.3,707.16,229.52,707.15,229.73,707.15 C229.95,707.15,230.17,707.12,230.38,707.12 C230.46,707.12,230.58,707.12,230.58,707.32 C230.58,707.43,230.49,707.43,230.3,707.43 C229.93,707.43,229.65,707.43,229.65,707.61 C229.65,707.67,229.67,707.72,229.68,707.78 Z "
         stroke-width="0"
         fill="black"
         id="path5849"
         style="stroke:#0000ff;stroke-opacity:1;fill:#0000fc;fill-opacity:1" /><path
         d="M233.18,709.92 L233.18,709.94 L233.18,709.96 L233.18,709.98 L233.18,710 L233.17,710.01 L233.17,710.03 L233.16,710.05 L233.15,710.07 L233.15,710.09 L233.14,710.1 L233.13,710.12 L233.12,710.14 L233.11,710.15 L233.1,710.17 L233.08,710.18 L233.07,710.2 L233.06,710.21 L233.04,710.22 L233.03,710.23 L233.01,710.25 L233,710.26 L232.98,710.27 L232.96,710.28 L232.94,710.28 L232.92,710.29 L232.9,710.3 L232.89,710.3 L232.87,710.31 L232.84,710.31 L232.82,710.32 L232.8,710.32 L232.78,710.32 C232.57,710.32,232.38,710.15,232.38,709.92 C232.38,709.67,232.59,709.52,232.78,709.52 C233,709.52,233.18,709.69,233.18,709.92 Z "
         stroke-width="0"
         fill="black"
         id="path5851"
         style="stroke:#0000ff;stroke-opacity:1;fill:#0000fc;fill-opacity:1" /><path
         d="M232.12,708.62 V708.37 C232.56,708.37,232.63,708.33,232.63,707.99 V706.18 C232.63,705.88,232.56,705.88,232.1,705.88 V705.63 C232.12,705.63,232.6,705.66,232.88,705.66 C233.13,705.66,233.38,705.65,233.62,705.63 V705.88 C233.22,705.88,233.15,705.88,233.15,706.17 V708.7 Z "
         stroke-width="0"
         fill="black"
         id="path5853"
         style="stroke:#0000ff;stroke-opacity:1;fill:#0000fc;fill-opacity:1" /><path
         d="M237.56,707.74 L237.56,707.79 L237.55,707.85 L237.55,707.9 L237.54,707.95 L237.53,708 L237.52,708.05 L237.51,708.1 L237.5,708.14 L237.48,708.19 L237.46,708.23 L237.44,708.27 L237.42,708.31 L237.4,708.34 L237.37,708.38 L237.34,708.41 L237.31,708.44 L237.28,708.47 L237.25,708.5 L237.21,708.53 L237.17,708.55 L237.13,708.58 L237.08,708.6 L237.04,708.62 L236.99,708.63 L236.94,708.65 L236.88,708.66 L236.83,708.67 L236.77,708.68 L236.71,708.69 L236.65,708.69 L236.58,708.7 L236.51,708.7 C235.94,708.7,235.57,708.39,235.38,708.02 H235.37 V708.7 L234.35,708.62 V708.37 C234.81,708.37,234.87,708.32,234.87,707.98 V706.18 C234.87,705.88,234.8,705.88,234.35,705.88 V705.63 C234.36,705.63,234.85,705.66,235.14,705.66 C235.4,705.66,235.88,705.64,235.94,705.63 V705.88 C235.49,705.88,235.42,705.88,235.42,706.18 V707.43 C235.42,708.16,236,708.5,236.46,708.5 C236.94,708.5,237.01,708.12,237.01,707.77 V706.18 C237.01,705.88,236.94,705.88,236.48,705.88 V705.63 C236.5,705.63,236.99,705.66,237.28,705.66 C237.54,705.66,238.02,705.64,238.08,705.63 V705.88 C237.63,705.88,237.56,705.88,237.56,706.18 Z "
         stroke-width="0"
         fill="black"
         id="path5855"
         style="stroke:#0000ff;stroke-opacity:1;fill:#0000fc;fill-opacity:1" /><path
         d="M239.55,708.38 H240.64 V708.63 H239.55 V709.91 H239.32 C239.31,709.28,239.02,708.59,238.35,708.57 V708.38 H239 V706.5 C239,705.72,239.59,705.56,239.98,705.56 C240.45,705.56,240.76,705.96,240.76,706.51 V706.89 H240.53 V706.51 C240.53,706.04,240.31,705.78,240.03,705.78 C239.55,705.78,239.55,706.37,239.55,706.49 Z "
         stroke-width="0"
         fill="black"
         id="path5857"
         style="stroke:#0000ff;stroke-opacity:1;fill:#0000fc;fill-opacity:1" /><path
         d="M245.06,704.74 L245.06,704.75 L245.06,704.75 L245.06,704.75 L245.06,704.76 L245.06,704.76 L245.06,704.76 L245.06,704.77 L245.05,704.77 L245.05,704.77 L245.05,704.78 L245.05,704.78 L245.04,704.79 L245.04,704.79 L245.04,704.8 L245.03,704.8 L245.03,704.81 L245.02,704.82 L245.02,704.82 L245.01,704.83 L245.01,704.83 L245.01,704.84 L245,704.84 L245,704.84 L245,704.85 L244.99,704.85 L244.99,704.86 L244.98,704.86 L244.98,704.87 L244.97,704.87 L244.97,704.88 L244.96,704.88 L244.96,704.89 L244.95,704.9 L244.95,704.9 L244.94,704.91 L244.93,704.92 L244.93,704.92 L244.92,704.93 L244.91,704.94 L244.91,704.94 L244.9,704.95 L244.89,704.96 C243.65,706.21,243.33,708.09,243.33,709.61 C243.33,711.34,243.71,713.07,244.93,714.31 C245.06,714.43,245.06,714.45,245.06,714.48 C245.06,714.55,245.02,714.58,244.96,714.58 C244.86,714.58,243.96,713.9,243.38,712.64 C242.87,711.55,242.75,710.44,242.75,709.61 C242.75,708.83,242.86,707.63,243.41,706.51 C244.01,705.29,244.86,704.64,244.96,704.64 C245.02,704.64,245.06,704.67,245.06,704.74 Z "
         stroke-width="0"
         fill="black"
         id="path5859"
         style="stroke:#0000ff;stroke-opacity:1;fill:#0000fc;fill-opacity:1" /><path
         d="M250.67,713.04 L250.65,713.02 L250.64,713.01 L250.62,713 L250.61,712.98 L250.59,712.97 L250.57,712.95 L250.55,712.93 L250.53,712.92 L250.51,712.9 L250.5,712.88 L250.46,712.84 L250.42,712.8 L250.38,712.76 L250.36,712.74 L250.34,712.72 L250.33,712.7 L250.31,712.68 L250.29,712.66 L250.28,712.64 L250.26,712.62 L250.25,712.6 L250.24,712.58 L250.23,712.56 L250.22,712.54 L250.21,712.52 L250.21,712.5 L250.2,712.48 L250.2,712.47 L250.2,712.45 C250.2,712.35,250.3,712.25,250.4,712.25 C250.49,712.25,250.54,712.32,250.59,712.38 C250.71,712.53,250.93,712.81,251.37,713.03 C251.44,713.07,251.54,713.11,251.54,713.23 C251.54,713.33,251.47,713.38,251.4,713.43 C251.18,713.58,251.07,713.76,250.99,714 C250.97,714.09,250.93,714.22,250.79,714.22 C250.66,714.22,250.6,714.09,250.6,714.01 C250.6,713.96,250.68,713.64,250.84,713.43 H247.48 C247.31,713.43,247.13,713.43,247.13,713.23 C247.13,713.04,247.31,713.04,247.48,713.04 Z "
         stroke-width="0"
         fill="black"
         id="path5861"
         style="stroke:#0000ff;stroke-opacity:1;fill:#0000fc;fill-opacity:1" /><path
         d="M246.52,707.71 L246.51,707.7 L246.51,707.68 L246.51,707.67 L246.5,707.65 L246.5,707.62 L246.49,707.59 L246.48,707.56 L246.48,707.52 L246.47,707.49 L246.46,707.46 L246.46,707.45 L246.45,707.43 L246.45,707.42 L246.45,707.4 L246.45,707.39 L246.44,707.38 L246.44,707.36 L246.44,707.35 L246.44,707.34 L246.43,707.33 L246.43,707.32 L246.43,707.31 L246.43,707.3 L246.43,707.3 L246.43,707.29 L246.43,707.28 C246.43,707.1,246.57,707.02,246.72,707.02 C246.84,707.02,247.01,707.09,247.08,707.29 C247.1,707.33,247.44,708.68,247.48,708.86 C247.56,709.19,247.74,709.89,247.8,710.16 C247.84,710.28,248.12,710.75,248.36,710.97 C248.44,711.04,248.73,711.3,249.15,711.3 C249.41,711.3,249.56,711.18,249.57,711.18 C249.27,711.13,249.05,710.89,249.05,710.63 C249.05,710.47,249.16,710.28,249.43,710.28 C249.7,710.28,249.98,710.51,249.98,710.87 C249.98,711.22,249.66,711.52,249.15,711.52 C248.51,711.52,248.07,711.03,247.88,710.75 C247.8,711.2,247.44,711.52,246.98,711.52 C246.52,711.52,246.33,711.13,246.24,710.95 C246.06,710.61,245.93,710.02,245.93,709.99 C245.93,709.89,246.03,709.89,246.05,709.89 C246.15,709.89,246.16,709.9,246.22,710.11 C246.39,710.82,246.59,711.3,246.95,711.3 C247.11,711.3,247.25,711.22,247.25,710.84 C247.25,710.63,247.22,710.52,247.09,710.01 Z "
         stroke-width="0"
         fill="black"
         id="path5863"
         style="stroke:#0000ff;stroke-opacity:1;fill:#0000fc;fill-opacity:1" /><path
         d="M252.44,707.14 L252.44,707.2 L252.43,707.25 L252.43,707.31 L252.42,707.37 L252.42,707.42 L252.41,707.47 L252.4,707.53 L252.39,707.57 L252.38,707.62 L252.37,707.67 L252.35,707.71 L252.34,707.75 L252.32,707.79 L252.3,707.83 L252.28,707.87 L252.26,707.9 L252.24,707.94 L252.22,707.97 L252.2,707.99 L252.17,708.02 L252.15,708.05 L252.12,708.07 L252.09,708.09 L252.06,708.11 L252.03,708.12 L252,708.14 L251.97,708.15 L251.94,708.16 L251.9,708.17 L251.87,708.17 L251.83,708.18 L251.8,708.18 C251.47,708.18,251.27,707.93,251.27,707.65 C251.27,707.38,251.47,707.12,251.8,707.12 C251.92,707.12,252.05,707.16,252.15,707.25 C252.18,707.27,252.19,707.28,252.2,707.28 C252.21,707.28,252.22,707.27,252.22,707.14 C252.22,706.4,251.87,705.8,251.54,705.48 C251.43,705.37,251.43,705.35,251.43,705.32 C251.43,705.25,251.48,705.21,251.53,705.21 C251.64,705.21,252.44,705.97,252.44,707.14 Z "
         stroke-width="0"
         fill="black"
         id="path5865"
         style="stroke:#0000ff;stroke-opacity:1;fill:#0000fc;fill-opacity:1" /><path
         d="M256.89,711.1 H257.82 C258.02,711.1,258.12,711.1,258.12,711.3 C258.12,711.41,258.02,711.41,257.84,711.41 H256.97 C257.33,712.82,257.37,713.02,257.37,713.08 C257.37,713.24,257.26,713.34,257.09,713.34 C257.06,713.34,256.78,713.33,256.69,712.99 L256.3,711.41 H255.37 C255.17,711.41,255.07,711.41,255.07,711.22 C255.07,711.1,255.15,711.1,255.35,711.1 H256.22 C255.5,708.28,255.46,708.11,255.46,707.93 C255.46,707.39,255.84,707.02,256.38,707.02 C257.39,707.02,257.96,708.47,257.96,708.55 C257.96,708.65,257.88,708.65,257.84,708.65 C257.75,708.65,257.74,708.61,257.69,708.51 C257.27,707.47,256.74,707.23,256.4,707.23 C256.19,707.23,256.09,707.36,256.09,707.69 C256.09,707.93,256.11,708,256.15,708.17 Z "
         stroke-width="0"
         fill="black"
         id="path5867"
         style="stroke:#0000ff;stroke-opacity:1;fill:#0000fc;fill-opacity:1" /><path
         d="M264.72,709.41 H267.5 C267.64,709.41,267.82,709.41,267.82,709.61 C267.82,709.81,267.64,709.81,267.5,709.81 H264.72 V712.59 C264.72,712.73,264.72,712.92,264.52,712.92 C264.32,712.92,264.32,712.73,264.32,712.59 V709.81 H261.54 C261.4,709.81,261.21,709.81,261.21,709.61 C261.21,709.41,261.4,709.41,261.54,709.41 H264.32 V706.63 C264.32,706.49,264.32,706.3,264.52,706.3 C264.72,706.3,264.72,706.49,264.72,706.63 Z "
         stroke-width="0"
         fill="black"
         id="path5869"
         style="stroke:#0000ff;stroke-opacity:1;fill:#0000fc;fill-opacity:1" /><path
         d="M275.01,714.06 L275,714.07 L275,714.08 L274.99,714.09 L274.98,714.1 L274.98,714.11 L274.97,714.12 L274.97,714.13 L274.96,714.14 L274.96,714.15 L274.95,714.16 L274.95,714.17 L274.94,714.17 L274.94,714.18 L274.93,714.19 L274.92,714.19 L274.92,714.2 L274.91,714.2 L274.9,714.21 L274.9,714.21 L274.89,714.22 L274.88,714.22 L274.87,714.22 L274.86,714.23 L274.85,714.23 L274.84,714.23 L274.83,714.23 L274.82,714.23 L274.81,714.24 L274.79,714.24 L274.78,714.24 L274.77,714.24 L274.75,714.24 C274.58,714.24,274.56,714.19,274.49,714.06 L274.43,713.24 L277.11,707.88 H271.75 L274.43,713.24 L274.49,714.06 L271.13,707.32 C271.08,707.23,271.08,707.21,271.08,707.2 C271.08,707.12,271.14,707.12,271.3,707.12 H278.2 C278.36,707.12,278.42,707.12,278.42,707.2 C278.42,707.21,278.42,707.23,278.37,707.32 Z "
         stroke-width="0"
         fill="black"
         id="path5871"
         style="stroke:#0000ff;stroke-opacity:1;fill:#0000fc;fill-opacity:1" /><path
         d="M280.97,711.1 H281.9 C282.1,711.1,282.2,711.1,282.2,711.3 C282.2,711.41,282.1,711.41,281.92,711.41 H281.05 C281.4,712.82,281.45,713.02,281.45,713.08 C281.45,713.24,281.33,713.34,281.16,713.34 C281.14,713.34,280.86,713.33,280.77,712.99 L280.38,711.41 H279.44 C279.24,711.41,279.14,711.41,279.14,711.22 C279.14,711.1,279.22,711.1,279.42,711.1 H280.3 C279.58,708.28,279.54,708.11,279.54,707.93 C279.54,707.39,279.92,707.02,280.46,707.02 C281.47,707.02,282.04,708.47,282.04,708.55 C282.04,708.65,281.96,708.65,281.92,708.65 C281.83,708.65,281.82,708.61,281.77,708.51 C281.34,707.47,280.82,707.23,280.48,707.23 C280.27,707.23,280.17,707.36,280.17,707.69 C280.17,707.93,280.19,708,280.23,708.17 Z "
         stroke-width="0"
         fill="black"
         id="path5873"
         style="stroke:#0000ff;stroke-opacity:1;fill:#0000fc;fill-opacity:1" /><path
         d="M285.39,709.61 L285.39,709.68 L285.39,709.76 L285.39,709.84 L285.38,709.92 L285.38,710.09 L285.36,710.26 L285.35,710.44 L285.33,710.63 L285.3,710.83 L285.27,711.03 L285.23,711.23 L285.18,711.44 L285.13,711.65 L285.07,711.86 L285,712.07 L284.92,712.28 L284.88,712.39 L284.83,712.5 L284.78,712.6 L284.73,712.71 C284.14,713.93,283.28,714.58,283.18,714.58 C283.12,714.58,283.08,714.54,283.08,714.48 C283.08,714.45,283.08,714.43,283.27,714.25 C284.24,713.26,284.81,711.68,284.81,709.61 C284.81,707.91,284.44,706.16,283.21,704.91 C283.08,704.79,283.08,704.77,283.08,704.74 C283.08,704.68,283.12,704.64,283.18,704.64 C283.28,704.64,284.17,705.32,284.76,706.58 C285.27,707.67,285.39,708.77,285.39,709.61 Z "
         stroke-width="0"
         fill="black"
         id="path5875"
         style="stroke:#0000ff;stroke-opacity:1;fill:#0000fc;fill-opacity:1" /></g>    <g
       style="font-style:normal;font-variant:normal;font-weight:normal;font-stretch:normal;letter-spacing:normal;word-spacing:normal;text-anchor:start;fill:#0000ff;stroke:#0000ff;stroke-linecap:butt;stroke-linejoin:miter;stroke-miterlimit:10.43299960999999954;stroke-opacity:1;stroke-dasharray:none;stroke-dashoffset:0;fill-opacity:1"
       ns0:preamble=""
       ns0:text="$ \\hat{H}_{\\mathrm{int}} (\\vec{r}, t) $"
       text-anchor="start"
       word-spacing="normal"
       letter-spacing="normal"
       font-size-adjust="none"
       font-stretch="normal"
       font-weight="normal"
       font-variant="normal"
       font-style="normal"
       fill-opacity="1"
       fill-rule="evenodd"
       fill="none"
       stroke-opacity="1"
       stroke-dashoffset="0"
       stroke-dasharray="none"
       stroke-miterlimit="10.433"
       stroke-linejoin="miter"
       stroke-linecap="butt"
       stroke="black"
       xml:space="preserve"
       transform="matrix(1.5766141,1.1144702,1.2305641,-1.6672266,-981.96943,1338.2432)"
       id="g6202"><polygon
         id="polygon6204"
         fill="black"
         stroke-width="0"
         points="228.53,716.54 227.19,715.19 227.37,715.01 228.53,716.02 229.67,715.01 229.85,715.19 "
         style="fill:#0000ff;fill-opacity:1" /><path
         id="path6206"
         fill="black"
         stroke-width="0"
         d="M231.02,713.15 L231.03,713.18 L231.04,713.21 L231.05,713.24 L231.05,713.27 L231.06,713.29 L231.07,713.32 L231.08,713.34 L231.09,713.37 L231.1,713.39 L231.11,713.41 L231.12,713.43 L231.14,713.45 L231.15,713.46 L231.17,713.48 L231.18,713.49 L231.2,713.51 L231.22,713.52 L231.25,713.53 L231.27,713.54 L231.3,713.55 L231.33,713.56 L231.36,713.57 L231.38,713.57 L231.4,713.57 L231.42,713.58 L231.43,713.58 L231.45,713.58 L231.48,713.59 L231.5,713.59 L231.52,713.59 L231.54,713.59 L231.57,713.59 L231.59,713.6 L231.62,713.6 L231.65,713.6 L231.67,713.6 L231.7,713.6 L231.73,713.6 L231.76,713.6 L231.79,713.6 L231.83,713.6 L231.86,713.6 C232.12,713.6,232.2,713.6,232.2,713.8 C232.2,713.91,232.09,713.91,232.06,713.91 C231.78,713.91,231.06,713.88,230.78,713.88 C230.5,713.88,229.79,713.91,229.5,713.91 C229.42,713.91,229.31,713.91,229.31,713.71 C229.31,713.6,229.4,713.6,229.59,713.6 C229.61,713.6,229.8,713.6,229.97,713.58 C230.15,713.56,230.24,713.55,230.24,713.42 C230.24,713.38,230.23,713.36,230.2,713.23 L229.6,710.81 H226.57 L227.15,713.15 C227.24,713.5,227.27,713.6,227.99,713.6 C228.25,713.6,228.33,713.6,228.33,713.8 C228.33,713.91,228.22,713.91,228.19,713.91 C227.91,713.91,227.19,713.88,226.91,713.88 C226.63,713.88,225.92,713.91,225.63,713.91 C225.55,713.91,225.44,713.91,225.44,713.71 C225.44,713.6,225.53,713.6,225.72,713.6 C225.74,713.6,225.93,713.6,226.1,713.58 C226.28,713.56,226.37,713.55,226.37,713.42 C226.37,713.38,226.36,713.35,226.33,713.23 L224.99,707.9 C224.9,707.51,224.88,707.43,224.09,707.43 C223.91,707.43,223.82,707.43,223.82,707.23 C223.82,707.12,223.94,707.12,223.96,707.12 C224.24,707.12,224.94,707.16,225.22,707.16 C225.43,707.16,225.65,707.15,225.86,707.15 C226.08,707.15,226.3,707.12,226.51,707.12 C226.59,707.12,226.71,707.12,226.71,707.32 C226.71,707.43,226.62,707.43,226.43,707.43 C226.06,707.43,225.78,707.43,225.78,707.61 C225.78,707.67,225.8,707.72,225.81,707.78 L226.49,710.5 H229.52 C229.1,708.85,228.87,707.91,228.83,707.76 C228.74,707.44,228.55,707.43,227.93,707.43 C227.78,707.43,227.69,707.43,227.69,707.23 C227.69,707.12,227.81,707.12,227.83,707.12 C228.11,707.12,228.82,707.16,229.09,707.16 C229.3,707.16,229.52,707.15,229.73,707.15 C229.95,707.15,230.17,707.12,230.38,707.12 C230.46,707.12,230.58,707.12,230.58,707.32 C230.58,707.43,230.49,707.43,230.3,707.43 C229.93,707.43,229.65,707.43,229.65,707.61 C229.65,707.67,229.67,707.72,229.68,707.78 Z "
         style="fill:#0000ff;fill-opacity:1" /><path
         id="path6208"
         fill="black"
         stroke-width="0"
         d="M233.18,709.92 L233.18,709.94 L233.18,709.96 L233.18,709.98 L233.18,710 L233.17,710.01 L233.17,710.03 L233.16,710.05 L233.15,710.07 L233.15,710.09 L233.14,710.1 L233.13,710.12 L233.12,710.14 L233.11,710.15 L233.1,710.17 L233.08,710.18 L233.07,710.2 L233.06,710.21 L233.04,710.22 L233.03,710.23 L233.01,710.25 L233,710.26 L232.98,710.27 L232.96,710.28 L232.94,710.28 L232.92,710.29 L232.9,710.3 L232.89,710.3 L232.87,710.31 L232.84,710.31 L232.82,710.32 L232.8,710.32 L232.78,710.32 C232.57,710.32,232.38,710.15,232.38,709.92 C232.38,709.67,232.59,709.52,232.78,709.52 C233,709.52,233.18,709.69,233.18,709.92 Z "
         style="fill:#0000ff;fill-opacity:1" /><path
         id="path6210"
         fill="black"
         stroke-width="0"
         d="M232.12,708.62 V708.37 C232.56,708.37,232.63,708.33,232.63,707.99 V706.18 C232.63,705.88,232.56,705.88,232.1,705.88 V705.63 C232.12,705.63,232.6,705.66,232.88,705.66 C233.13,705.66,233.38,705.65,233.62,705.63 V705.88 C233.22,705.88,233.15,705.88,233.15,706.17 V708.7 Z "
         style="fill:#0000ff;fill-opacity:1" /><path
         id="path6212"
         fill="black"
         stroke-width="0"
         d="M237.56,707.74 L237.56,707.79 L237.55,707.85 L237.55,707.9 L237.54,707.95 L237.53,708 L237.52,708.05 L237.51,708.1 L237.5,708.14 L237.48,708.19 L237.46,708.23 L237.44,708.27 L237.42,708.31 L237.4,708.34 L237.37,708.38 L237.34,708.41 L237.31,708.44 L237.28,708.47 L237.25,708.5 L237.21,708.53 L237.17,708.55 L237.13,708.58 L237.08,708.6 L237.04,708.62 L236.99,708.63 L236.94,708.65 L236.88,708.66 L236.83,708.67 L236.77,708.68 L236.71,708.69 L236.65,708.69 L236.58,708.7 L236.51,708.7 C235.94,708.7,235.57,708.39,235.38,708.02 H235.37 V708.7 L234.35,708.62 V708.37 C234.81,708.37,234.87,708.32,234.87,707.98 V706.18 C234.87,705.88,234.8,705.88,234.35,705.88 V705.63 C234.36,705.63,234.85,705.66,235.14,705.66 C235.4,705.66,235.88,705.64,235.94,705.63 V705.88 C235.49,705.88,235.42,705.88,235.42,706.18 V707.43 C235.42,708.16,236,708.5,236.46,708.5 C236.94,708.5,237.01,708.12,237.01,707.77 V706.18 C237.01,705.88,236.94,705.88,236.48,705.88 V705.63 C236.5,705.63,236.99,705.66,237.28,705.66 C237.54,705.66,238.02,705.64,238.08,705.63 V705.88 C237.63,705.88,237.56,705.88,237.56,706.18 Z "
         style="fill:#0000ff;fill-opacity:1" /><path
         id="path6214"
         fill="black"
         stroke-width="0"
         d="M239.55,708.38 H240.64 V708.63 H239.55 V709.91 H239.32 C239.31,709.28,239.02,708.59,238.35,708.57 V708.38 H239 V706.5 C239,705.72,239.59,705.56,239.98,705.56 C240.45,705.56,240.76,705.96,240.76,706.51 V706.89 H240.53 V706.51 C240.53,706.04,240.31,705.78,240.03,705.78 C239.55,705.78,239.55,706.37,239.55,706.49 Z "
         style="fill:#0000ff;fill-opacity:1" /><path
         id="path6216"
         fill="black"
         stroke-width="0"
         d="M245.06,704.74 L245.06,704.75 L245.06,704.75 L245.06,704.75 L245.06,704.76 L245.06,704.76 L245.06,704.76 L245.06,704.77 L245.05,704.77 L245.05,704.77 L245.05,704.78 L245.05,704.78 L245.04,704.79 L245.04,704.79 L245.04,704.8 L245.03,704.8 L245.03,704.81 L245.02,704.82 L245.02,704.82 L245.01,704.83 L245.01,704.83 L245.01,704.84 L245,704.84 L245,704.84 L245,704.85 L244.99,704.85 L244.99,704.86 L244.98,704.86 L244.98,704.87 L244.97,704.87 L244.97,704.88 L244.96,704.88 L244.96,704.89 L244.95,704.9 L244.95,704.9 L244.94,704.91 L244.93,704.92 L244.93,704.92 L244.92,704.93 L244.91,704.94 L244.91,704.94 L244.9,704.95 L244.89,704.96 C243.65,706.21,243.33,708.09,243.33,709.61 C243.33,711.34,243.71,713.07,244.93,714.31 C245.06,714.43,245.06,714.45,245.06,714.48 C245.06,714.55,245.02,714.58,244.96,714.58 C244.86,714.58,243.96,713.9,243.38,712.64 C242.87,711.55,242.75,710.44,242.75,709.61 C242.75,708.83,242.86,707.63,243.41,706.51 C244.01,705.29,244.86,704.64,244.96,704.64 C245.02,704.64,245.06,704.67,245.06,704.74 Z "
         style="fill:#0000ff;fill-opacity:1" /><path
         id="path6218"
         fill="black"
         stroke-width="0"
         d="M250.67,713.04 L250.65,713.02 L250.64,713.01 L250.62,713 L250.61,712.98 L250.59,712.97 L250.57,712.95 L250.55,712.93 L250.53,712.92 L250.51,712.9 L250.5,712.88 L250.46,712.84 L250.42,712.8 L250.38,712.76 L250.36,712.74 L250.34,712.72 L250.33,712.7 L250.31,712.68 L250.29,712.66 L250.28,712.64 L250.26,712.62 L250.25,712.6 L250.24,712.58 L250.23,712.56 L250.22,712.54 L250.21,712.52 L250.21,712.5 L250.2,712.48 L250.2,712.47 L250.2,712.45 C250.2,712.35,250.3,712.25,250.4,712.25 C250.49,712.25,250.54,712.32,250.59,712.38 C250.71,712.53,250.93,712.81,251.37,713.03 C251.44,713.07,251.54,713.11,251.54,713.23 C251.54,713.33,251.47,713.38,251.4,713.43 C251.18,713.58,251.07,713.76,250.99,714 C250.97,714.09,250.93,714.22,250.79,714.22 C250.66,714.22,250.6,714.09,250.6,714.01 C250.6,713.96,250.68,713.64,250.84,713.43 H247.48 C247.31,713.43,247.13,713.43,247.13,713.23 C247.13,713.04,247.31,713.04,247.48,713.04 Z "
         style="fill:#0000ff;fill-opacity:1" /><path
         id="path6220"
         fill="black"
         stroke-width="0"
         d="M246.52,707.71 L246.51,707.7 L246.51,707.68 L246.51,707.67 L246.5,707.65 L246.5,707.62 L246.49,707.59 L246.48,707.56 L246.48,707.52 L246.47,707.49 L246.46,707.46 L246.46,707.45 L246.45,707.43 L246.45,707.42 L246.45,707.4 L246.45,707.39 L246.44,707.38 L246.44,707.36 L246.44,707.35 L246.44,707.34 L246.43,707.33 L246.43,707.32 L246.43,707.31 L246.43,707.3 L246.43,707.3 L246.43,707.29 L246.43,707.28 C246.43,707.1,246.57,707.02,246.72,707.02 C246.84,707.02,247.01,707.09,247.08,707.29 C247.1,707.33,247.44,708.68,247.48,708.86 C247.56,709.19,247.74,709.89,247.8,710.16 C247.84,710.28,248.12,710.75,248.36,710.97 C248.44,711.04,248.73,711.3,249.15,711.3 C249.41,711.3,249.56,711.18,249.57,711.18 C249.27,711.13,249.05,710.89,249.05,710.63 C249.05,710.47,249.16,710.28,249.43,710.28 C249.7,710.28,249.98,710.51,249.98,710.87 C249.98,711.22,249.66,711.52,249.15,711.52 C248.51,711.52,248.07,711.03,247.88,710.75 C247.8,711.2,247.44,711.52,246.98,711.52 C246.52,711.52,246.33,711.13,246.24,710.95 C246.06,710.61,245.93,710.02,245.93,709.99 C245.93,709.89,246.03,709.89,246.05,709.89 C246.15,709.89,246.16,709.9,246.22,710.11 C246.39,710.82,246.59,711.3,246.95,711.3 C247.11,711.3,247.25,711.22,247.25,710.84 C247.25,710.63,247.22,710.52,247.09,710.01 Z "
         style="fill:#0000ff;fill-opacity:1" /><path
         id="path6222"
         fill="black"
         stroke-width="0"
         d="M252.44,707.14 L252.44,707.2 L252.43,707.25 L252.43,707.31 L252.42,707.37 L252.42,707.42 L252.41,707.47 L252.4,707.53 L252.39,707.57 L252.38,707.62 L252.37,707.67 L252.35,707.71 L252.34,707.75 L252.32,707.79 L252.3,707.83 L252.28,707.87 L252.26,707.9 L252.24,707.94 L252.22,707.97 L252.2,707.99 L252.17,708.02 L252.15,708.05 L252.12,708.07 L252.09,708.09 L252.06,708.11 L252.03,708.12 L252,708.14 L251.97,708.15 L251.94,708.16 L251.9,708.17 L251.87,708.17 L251.83,708.18 L251.8,708.18 C251.47,708.18,251.27,707.93,251.27,707.65 C251.27,707.38,251.47,707.12,251.8,707.12 C251.92,707.12,252.05,707.16,252.15,707.25 C252.18,707.27,252.19,707.28,252.2,707.28 C252.21,707.28,252.22,707.27,252.22,707.14 C252.22,706.4,251.87,705.8,251.54,705.48 C251.43,705.37,251.43,705.35,251.43,705.32 C251.43,705.25,251.48,705.21,251.53,705.21 C251.64,705.21,252.44,705.97,252.44,707.14 Z "
         style="fill:#0000ff;fill-opacity:1" /><path
         id="path6224"
         fill="black"
         stroke-width="0"
         d="M256.89,711.1 H257.82 C258.02,711.1,258.12,711.1,258.12,711.3 C258.12,711.41,258.02,711.41,257.84,711.41 H256.97 C257.33,712.82,257.37,713.02,257.37,713.08 C257.37,713.24,257.26,713.34,257.09,713.34 C257.06,713.34,256.78,713.33,256.69,712.99 L256.3,711.41 H255.37 C255.17,711.41,255.07,711.41,255.07,711.22 C255.07,711.1,255.15,711.1,255.35,711.1 H256.22 C255.5,708.28,255.46,708.11,255.46,707.93 C255.46,707.39,255.84,707.02,256.38,707.02 C257.39,707.02,257.96,708.47,257.96,708.55 C257.96,708.65,257.88,708.65,257.84,708.65 C257.75,708.65,257.74,708.61,257.69,708.51 C257.27,707.47,256.74,707.23,256.4,707.23 C256.19,707.23,256.09,707.36,256.09,707.69 C256.09,707.93,256.11,708,256.15,708.17 Z "
         style="fill:#0000ff;fill-opacity:1" /><path
         id="path6226"
         fill="black"
         stroke-width="0"
         d="M261.31,709.61 L261.31,709.68 L261.31,709.76 L261.31,709.84 L261.31,709.92 L261.3,710.09 L261.29,710.26 L261.27,710.44 L261.25,710.63 L261.22,710.83 L261.19,711.03 L261.15,711.23 L261.1,711.44 L261.05,711.65 L260.99,711.86 L260.92,712.07 L260.84,712.28 L260.8,712.39 L260.75,712.5 L260.71,712.6 L260.66,712.71 C260.06,713.93,259.2,714.58,259.1,714.58 C259.04,714.58,259,714.54,259,714.48 C259,714.45,259,714.43,259.19,714.25 C260.17,713.26,260.73,711.68,260.73,709.61 C260.73,707.91,260.37,706.16,259.13,704.91 C259,704.79,259,704.77,259,704.74 C259,704.68,259.04,704.64,259.1,704.64 C259.2,704.64,260.1,705.32,260.68,706.58 C261.19,707.67,261.31,708.77,261.31,709.61 Z "
         style="fill:#0000ff;fill-opacity:1" /></g>  </g>
</svg>
