CalculationMode = gs

%Coordinates
 'H' |  0.717157 | 0 | 0
 'H' | -0.717157 | 0 | 0
%

MaximumIter = 0

SpinComponents = spin_polarized

ExcessCharge = 1

Spacing = 0.5

%Occupations
0.8
0.2
%

XCFunctional = gga_xc_sb98_2a

FilterPotentials = filter_none

